hardware/hdl/tb/test.vcd
$date
  Wed Oct  7 22:52:02 2015
$end
$version
  GHDL v0
$end
$timescale
  1 fs
$end
$var reg 1 ! imx_cs_n $end
$var reg 1 " imx_rw $end
$var reg 1 # imx_adv $end
$var reg 1 $ clk $end
$var reg 1 % reset $end
$var reg 16 & imx_da[15:0] $end
$scope module uut $end
$var reg 16 ' imx_da[15:0] $end
$var reg 1 ( imx_cs_n $end
$var reg 1 ) imx_rw $end
$var reg 1 * imx_adv $end
$var reg 1 + ext_clk $end
$var reg 1 , led_a $end
$var reg 1 - led_c $end
$var reg 2 . c_sel[1:0] $end
$var reg 1 / adv $end
$var reg 1 0 led_ack $end
$var reg 1 1 default_ack $end
$var reg 16 2 led_dout[15:0] $end
$var reg 16 3 default_dout[15:0] $end
$var reg 16 4 data[15:0] $end
$var reg 16 5 wbm_address[15:0] $end
$var reg 16 6 wbm_readdata[15:0] $end
$var reg 16 7 wbm_writedata[15:0] $end
$var reg 1 8 wbm_strobe $end
$var reg 1 9 wbm_write $end
$var reg 1 : wbm_ack $end
$var reg 1 ; wbm_cycle $end
$var reg 1 < strobe $end
$var reg 1 = cycle $end
$var reg 1 > wr $end
$var reg 1 ? gls_reset $end
$var reg 1 @ gls_clk $end
$scope module reset_gen $end
$var reg 1 A ext_clk $end
$var reg 1 B gls_clk $end
$var reg 1 C gls_reset $end
$var reg 1 D dly $end
$var reg 1 E rst $end
$var reg 1 F ext_reset $end
$upscope $end
$scope module imx51_wb_16 $end
$var reg 16 G imx_da[15:0] $end
$var reg 1 H imx_cs_n $end
$var reg 1 I imx_rw $end
$var reg 1 J imx_adv $end
$var reg 1 K gls_reset $end
$var reg 1 L gls_clk $end
$var reg 16 M wbm_address[15:0] $end
$var reg 16 N wbm_readdata[15:0] $end
$var reg 16 O wbm_writedata[15:0] $end
$var reg 1 P wbm_strobe $end
$var reg 1 Q wbm_write $end
$var reg 1 R wbm_ack $end
$var reg 1 S wbm_cycle $end
$var reg 1 T write $end
$var reg 1 U read $end
$var reg 1 V strobe $end
$var reg 16 W writedata[15:0] $end
$var reg 16 X address[15:0] $end
$upscope $end
$scope module interface $end
$var reg 1 Y clk $end
$var reg 1 Z reset $end
$var reg 16 [ addr_in[15:0] $end
$var reg 1 \ strobe_in $end
$var reg 1 ] cycle_in $end
$var reg 1 ^ wr_in $end
$var reg 2 _ c_sel[1:0] $end
$var reg 1 ` adv $end
$var reg 1 a strobe_out $end
$var reg 1 b cycle_out $end
$var reg 1 c wr_out $end
$var reg 1 d slave_active $end
$var reg 2 e slave_sel[1:0] $end
$upscope $end
$scope module led_ent $end
$var reg 1 f clk $end
$var reg 1 g reset $end
$var reg 16 h din[15:0] $end
$var reg 1 i strobe $end
$var reg 1 j cycle $end
$var reg 1 k c_sel $end
$var reg 1 l adv $end
$var reg 1 m ack $end
$var reg 1 n wr $end
$var reg 16 o dout[15:0] $end
$var reg 1 p led $end
$var reg 16 q reg[15:0] $end
$upscope $end
$scope module def_ent $end
$var reg 1 r clk $end
$var reg 1 s reset $end
$var reg 16 t din[15:0] $end
$var reg 1 u strobe $end
$var reg 1 v cycle $end
$var reg 1 w c_sel $end
$var reg 1 x adv $end
$var reg 1 y ack $end
$var reg 1 z wr $end
$var reg 16 { dout[15:0] $end
$var reg 16 | reg[15:0] $end
$upscope $end
$upscope $end
$enddefinitions $end
#0
1!
1"
1#
0$
1%
b0000000000000000 &
b0000000000000000 '
1(
1)
1*
0+
1,
0-
bUU .
U/
00
01
bUUUUUUUUUUUUUUUU 2
bUUUUUUUUUUUUUUUU 3
bUUUUUUUUUUUUUUUU 4
bUUUUUUUUUUUUUUUU 5
bUUUUUUUUUUUUUUUU 6
b0000000000000000 7
08
09
0:
0;
0<
0=
0>
0?
0@
0A
0B
0C
0D
0E
0F
b0000000000000000 G
1H
1I
1J
0K
0L
bUUUUUUUUUUUUUUUU M
bUUUUUUUUUUUUUUUU N
b0000000000000000 O
0P
0Q
0R
0S
0T
0U
0V
bUUUUUUUUUUUUUUUU W
bUUUUUUUUUUUUUUUU X
0Y
0Z
bUUUUUUUUUUUUUUUU [
0\
0]
0^
bUU _
U`
0a
0b
0c
Ud
bUU e
0f
0g
b0000000000000000 h
0i
0j
Uk
Ul
0m
0n
bUUUUUUUUUUUUUUUU o
1p
bUUUUUUUUUUUUUUUU q
0r
0s
b0000000000000000 t
0u
0v
Uw
Ux
0y
0z
bUUUUUUUUUUUUUUUU {
bUUUUUUUUUUUUUUUU |
#10000000
1$
1+
b00 .
0/
b0000000000000000 2
b0000000000000000 3
b0000000000000000 5
b0000000000000000 6
1?
1@
1A
1B
1C
1E
1K
1L
b0000000000000000 M
b0000000000000000 N
b0000000000000000 W
b0000000000000000 X
1Y
1Z
b0000000000000000 [
b00 _
0`
0d
b00 e
1f
1g
0k
0l
b0000000000000000 o
b0000000000000000 q
1r
1s
0w
0x
b0000000000000000 {
b0000000000000000 |
#20000000
0$
0%
0+
0@
0A
0B
0L
0Y
0f
0r
#30000000
1$
1+
0?
1@
1A
1B
0C
1D
0E
0K
1L
1Y
0Z
1f
0g
1r
0s
#40000000
0$
0+
0@
0A
0B
0L
0Y
0f
0r
#50000000
1$
1+
b10 .
1@
1A
1B
1L
1Y
b10 _
1d
b10 e
1f
1r
1w
#60000000
0#
0$
b0000000000001010 &
b0000000000001010 '
0*
0+
0@
0A
0B
b0000000000001010 G
0J
0L
0Y
0f
0r
#70000000
1$
1+
b0000000000001010 5
1@
1A
1B
1L
b0000000000001010 M
b0000000000001010 X
1Y
b0000000000001010 [
1f
1r
#80000000
0!
0"
1#
0$
b0001001000110100 &
b0001001000110100 '
0(
0)
1*
0+
11
18
19
1:
1;
1<
1=
1>
0@
0A
0B
b0001001000110100 G
0H
0I
1J
0L
1P
1Q
1R
1S
1T
1V
0Y
1\
1]
1^
1a
1b
1c
0f
1i
1j
1n
0r
1u
1v
1y
1z
#90000000
1$
1+
b0001001000110100 7
1@
1A
1B
1L
b0001001000110100 O
b0001001000110100 W
1Y
1f
b0001001000110100 h
1r
b0001001000110100 t
#100000000
0$
0+
0@
0A
0B
0L
0Y
0f
0r
#110000000
1$
1+
1@
1A
1B
1L
1Y
1f
1r
b0001001000110100 |
#120000000
0$
0+
0@
0A
0B
0L
0Y
0f
0r
#130000000
1$
1+
1@
1A
1B
1L
1Y
1f
1r
#140000000
0$
0+
0@
0A
0B
0L
0Y
0f
0r
#150000000
1$
1+
1@
1A
1B
1L
1Y
1f
1r
#160000000
1!
0$
1(
0+
01
b0000000000000000 7
08
09
0:
0;
0<
0=
0>
0@
0A
0B
1H
0L
b0000000000000000 O
0P
0Q
0R
0S
0T
0V
0Y
0\
0]
0^
0a
0b
0c
0f
b0000000000000000 h
0i
0j
0n
0r
b0000000000000000 t
0u
0v
0y
0z
#170000000
1$
1+
1@
1A
1B
1L
1Y
1f
1r
#180000000
0$
0+
0@
0A
0B
0L
0Y
0f
0r
#190000000
1$
1+
1@
1A
1B
1L
1Y
1f
1r
#200000000
0$
0+
0@
0A
0B
0L
0Y
0f
0r
#210000000
1$
1+
1@
1A
1B
1L
1Y
1f
1r
#220000000
0$
0+
0@
0A
0B
0L
0Y
0f
0r
#230000000
1$
1+
1@
1A
1B
1L
1Y
1f
1r
#240000000
0$
0+
0@
0A
0B
0L
0Y
0f
0r
#250000000
1$
1+
1@
1A
1B
1L
1Y
1f
1r
#260000000
1"
0$
b0000000000000000 &
b0000000000000000 '
1)
0+
0@
0A
0B
b0000000000000000 G
1I
0L
0Y
0f
0r
#270000000
1$
1+
1@
1A
1B
1L
b0000000000000000 W
1Y
1f
1r
#280000000
0$
0+
0@
0A
0B
0L
0Y
0f
0r
#290000000
1$
1+
1@
1A
1B
1L
1Y
1f
1r
#300000000
0$
0+
0@
0A
0B
0L
0Y
0f
0r
#310000000
1$
1+
1@
1A
1B
1L
1Y
1f
1r
#320000000
0#
0$
b0000000000001100 &
b0000000000001100 '
0*
0+
0@
0A
0B
b0000000000001100 G
0J
0L
0Y
0f
0r
#330000000
1$
1+
b0000000000001100 5
1@
1A
1B
1L
b0000000000001100 M
b0000000000001100 X
1Y
b0000000000001100 [
1f
1r
#340000000
0!
1#
0$
b000000000000XX00 &
b000000000000XX00 '
0(
1*
0+
11
18
1:
1;
1<
1=
0@
0A
0B
b000000000000XX00 G
0H
1J
0L
1P
1R
1S
1U
1V
0Y
1\
1]
1a
1b
0f
1i
1j
0r
1u
1v
1y
#350000000
1$
b000X00X000XXX100 &
b000X00X000XXX100 '
1+
b0001001000110100 3
b0001001000110100 6
1@
1A
1B
b000X00X000XXX100 G
1L
b0001001000110100 N
b000000000000XX00 W
1Y
1f
1r
b0001001000110100 {
#360000000
0$
0+
0@
0A
0B
0L
0Y
0f
0r
#370000000
1$
1+
1@
1A
1B
1L
b000X00X000XXX100 W
1Y
1f
1r
#380000000
0$
0+
0@
0A
0B
0L
0Y
0f
0r
#390000000
1$
1+
1@
1A
1B
1L
1Y
1f
1r
#400000000
0$
0+
0@
0A
0B
0L
0Y
0f
0r
#410000000
1$
1+
1@
1A
1B
1L
1Y
1f
1r
#420000000
1!
0$
b0000000000001100 &
b0000000000001100 '
1(
0+
01
08
0:
0;
0<
0=
0@
0A
0B
b0000000000001100 G
1H
0L
0P
0R
0S
0U
0V
0Y
0\
0]
0a
0b
0f
0i
0j
0r
0u
0v
0y
#430000000
1$
1+
b0000000000000000 3
b0000000000000000 6
1@
1A
1B
1L
b0000000000000000 N
b0000000000001100 W
1Y
1f
1r
b0000000000000000 {
