hardware/sobel_hdl/tb/mult_test.vcd
$date
  Mon Oct 19 18:59:53 2015
$end
$version
  GHDL v0
$end
$timescale
  1 fs
$end
$var reg 1 ! clk $end
$var reg 1 " reset $end
$var reg 1 # start $end
$var reg 1 $ ready $end
$var reg 8 % a_in[7:0] $end
$var reg 8 & b_in[7:0] $end
$var reg 16 ' r[15:0] $end
$scope module uut $end
$var reg 1 ( clk $end
$var reg 1 ) reset $end
$var reg 1 * start $end
$var reg 8 + a_in[7:0] $end
$var reg 8 , b_in[7:0] $end
$var reg 16 - r[15:0] $end
$var reg 1 . ready $end
$comment state_reg is not handled $end
$comment state_next is not handled $end
$var reg 8 / a_reg[7:0] $end
$var reg 8 0 a_next[7:0] $end
$var reg 4 1 n_reg[3:0] $end
$var reg 4 2 n_next[3:0] $end
$var reg 17 3 p_reg[16:0] $end
$var reg 17 4 p_next[16:0] $end
$var reg 9 5 pu_next[8:0] $end
$var reg 9 6 pu_reg[8:0] $end
$var reg 8 7 pl_reg[7:0] $end
$upscope $end
$enddefinitions $end
#0
0!
1"
0#
1$
b00000000 %
b00000000 &
b0000000000000000 '
0(
1)
0*
b00000000 +
b00000000 ,
b0000000000000000 -
1.
b00000000 /
b00000000 0
b0000 1
b0000 2
b00000000000000000 3
b00000000000000000 4
bUUUUUUUUU 5
b000000000 6
b00000000 7
#10000000
1!
1(
#20000000
0!
0(
#30000000
1!
0"
1#
b00001000 %
b00001001 &
1(
0)
1*
b00001000 +
b00001001 ,
1.
b00001000 0
b1000 2
b00000000000001001 4
b000000000 5
#40000000
0!
0(
#50000000
1!
0#
0$
b0000000000001001 '
1(
0*
b0000000000001001 -
0.
b00001000 /
b00001000 0
b1000 1
b0111 2
b00000000000001001 3
b00000010000000100 4
b000001000 5
b00001001 7
#60000000
0!
0(
#70000000
1!
b0000010000000100 '
1(
b0000010000000100 -
b0111 1
b0110 2
b00000010000000100 3
b00000001000000010 4
b000000100 5
b000000100 6
b00000100 7
#80000000
0!
0(
#90000000
1!
b0000001000000010 '
1(
b0000001000000010 -
b0110 1
b0101 2
b00000001000000010 3
b00000000100000001 4
b000000010 5
b000000010 6
b00000010 7
#100000000
0!
0(
#110000000
1!
b0000000100000001 '
1(
b0000000100000001 -
b0101 1
b0100 2
b00000000100000001 3
b00000010010000000 4
b000001001 5
b000000001 6
b00000001 7
#120000000
0!
0(
#130000000
1!
b0000010010000000 '
1(
b0000010010000000 -
b0100 1
b0011 2
b00000010010000000 3
b00000001001000000 4
b000000100 5
b000000100 6
b10000000 7
#140000000
0!
0(
#150000000
1!
b0000001001000000 '
1(
b0000001001000000 -
b0011 1
b0010 2
b00000001001000000 3
b00000000100100000 4
b000000010 5
b000000010 6
b01000000 7
#160000000
0!
0(
#170000000
1!
b0000000100100000 '
1(
b0000000100100000 -
b0010 1
b0001 2
b00000000100100000 3
b00000000010010000 4
b000000001 5
b000000001 6
b00100000 7
#180000000
0!
0(
#190000000
1!
b0000000010010000 '
1(
b0000000010010000 -
b0001 1
b0000 2
b00000000010010000 3
b00000000001001000 4
b000000000 5
b000000000 6
b10010000 7
#200000000
0!
0(
#210000000
1!
1$
b0000000001001000 '
1(
b0000000001001000 -
1.
b0000 1
b00000000001001000 3
b01001000 7
