hardware/sobel_hdl/tb/sqrt_test.vcd
$date
  Mon Oct 19 18:19:08 2015
$end
$version
  GHDL v0
$end
$timescale
  1 fs
$end
$var reg 1 ! clk $end
$var reg 1 " reset $end
$var reg 1 # din_valid $end
$var reg 1 $ dout_ready $end
$var reg 16 % din[15:0] $end
$var reg 8 & dout[7:0] $end
$scope module uut $end
$var reg 1 ' clk $end
$var reg 1 ( reset $end
$var reg 1 ) din_valid $end
$var reg 16 * din[15:0] $end
$var reg 1 + dout_ready $end
$var reg 8 , dout[7:0] $end
$comment state is not handled $end
$comment state_next is not handled $end
$var reg 16 - mask[15:0] $end
$var reg 16 . mask_next[15:0] $end
$var reg 16 / root[15:0] $end
$var reg 16 0 root_next[15:0] $end
$var reg 16 1 remainder[15:0] $end
$var reg 16 2 remainder_next[15:0] $end
$upscope $end
$enddefinitions $end
#0
0!
1"
0#
0$
b0000000000000000 %
b00000000 &
0'
1(
0)
b0000000000000000 *
0+
b00000000 ,
b0100000000000000 -
b0100000000000000 .
b0000000000000000 /
b0000000000000000 0
b0000000000000000 1
b0000000000000000 2
#10000000
1!
1'
#20000000
0!
0'
#30000000
1!
0"
1#
b0000000001010001 %
1'
0(
1)
b0000000001010001 *
b0001000000000000 .
b0000000001010001 2
#40000000
0!
0'
#50000000
1!
0#
1'
0)
b0001000000000000 -
b0000010000000000 .
b0000000001010001 1
b0000000001010001 2
#60000000
0!
0'
#70000000
1!
1'
b0000010000000000 -
b0000000100000000 .
#80000000
0!
0'
#90000000
1!
1'
b0000000100000000 -
b0000000001000000 .
#100000000
0!
0'
#110000000
1!
b01000000 &
1'
b01000000 ,
b0000000001000000 -
b0000000000010000 .
b0000000001000000 0
b0000000000010001 2
#120000000
0!
0'
#130000000
1!
b00100000 &
1'
b00100000 ,
b0000000000010000 -
b0000000000000100 .
b0000000001000000 /
b0000000000100000 0
b0000000000010001 1
#140000000
0!
0'
#150000000
1!
b00010000 &
1'
b00010000 ,
b0000000000000100 -
b0000000000000001 .
b0000000000100000 /
b0000000000010000 0
#160000000
0!
0'
#170000000
1!
b00001001 &
1'
b00001001 ,
b0000000000000001 -
b0000000000000000 .
b0000000000010000 /
b0000000000001001 0
b0000000000000000 2
#180000000
0!
0'
#190000000
1!
1$
1'
1+
b0000000000000000 -
b0000000000001001 /
b0000000000000000 1
#200000000
0!
0'
#210000000
1!
0$
1'
0+
