hardware/hsv_hdl/tb/wb_test.vcd
$date
  Sat Nov  7 13:28:25 2015
$end
$version
  GHDL v0
$end
$timescale
  1 fs
$end
$var reg 1 ! imx_cs_n $end
$var reg 1 " imx_rw $end
$var reg 1 # imx_adv $end
$var reg 1 $ clk $end
$var reg 1 % reset $end
$var reg 1 & button $end
$var reg 1 ' irq $end
$var reg 16 ( imx_da[15:0] $end
$scope module uut $end
$var reg 16 ) imx_da[15:0] $end
$var reg 1 * imx_cs_n $end
$var reg 1 + imx_rw $end
$var reg 1 , imx_adv $end
$var reg 1 - ext_clk $end
$var reg 1 . button $end
$var reg 1 / gls_irq $end
$var reg 3 0 c_sel[2:0] $end
$var reg 1 1 adv $end
$var reg 16 2 wbm_address[15:0] $end
$var reg 16 3 wbm_readdata[15:0] $end
$var reg 16 4 wbm_writedata[15:0] $end
$var reg 1 5 wbm_strobe $end
$var reg 1 6 wbm_write $end
$var reg 1 7 wbm_ack $end
$var reg 1 8 wbm_cycle $end
$var reg 1 9 strobe $end
$var reg 1 : cycle $end
$var reg 1 ; wr $end
$var reg 1 < gls_reset $end
$var reg 1 = gls_clk $end
$var reg 16 > irq_dout[15:0] $end
$var reg 16 ? filter_dout[15:0] $end
$var reg 1 @ irq_ack $end
$var reg 1 A bt_irq $end
$var reg 1 B filter_ack $end
$var reg 16 C irq_port[15:0] $end
$var reg 1 D ack_tick $end
$var reg 1 E filter_finish $end
$var reg 1 F filter_start $end
$scope module debounce_unit $end
$var reg 1 G clk $end
$var reg 1 H reset $end
$var reg 1 I sw $end
$var reg 1 J db_level $end
$var reg 1 K db_tick $end
$comment state_reg is not handled $end
$comment state_next is not handled $end
$var reg 21 L q_reg[20:0] $end
$var reg 21 M q_next[20:0] $end
$upscope $end
$scope module reset_gen $end
$var reg 1 N ext_clk $end
$var reg 1 O gls_clk $end
$var reg 1 P gls_reset $end
$var reg 1 Q dly $end
$var reg 1 R rst $end
$var reg 1 S ext_reset $end
$upscope $end
$scope module imx51_wb_16 $end
$var reg 16 T imx_da[15:0] $end
$var reg 1 U imx_cs_n $end
$var reg 1 V imx_rw $end
$var reg 1 W imx_adv $end
$var reg 1 X gls_reset $end
$var reg 1 Y gls_clk $end
$var reg 16 Z wbm_address[15:0] $end
$var reg 16 [ wbm_readdata[15:0] $end
$var reg 16 \ wbm_writedata[15:0] $end
$var reg 1 ] wbm_strobe $end
$var reg 1 ^ wbm_write $end
$var reg 1 _ wbm_ack $end
$var reg 1 ` wbm_cycle $end
$var reg 1 a write $end
$var reg 1 b read $end
$var reg 1 c strobe $end
$var reg 16 d writedata[15:0] $end
$var reg 16 e address[15:0] $end
$upscope $end
$scope module interface $end
$var reg 1 f clk $end
$var reg 1 g reset $end
$var reg 16 h addr_in[15:0] $end
$var reg 1 i strobe_in $end
$var reg 1 j cycle_in $end
$var reg 1 k wr_in $end
$var reg 3 l c_sel[2:0] $end
$var reg 1 m adv $end
$var reg 1 n strobe_out $end
$var reg 1 o cycle_out $end
$var reg 1 p wr_out $end
$var reg 1 q slave_active $end
$var reg 3 r slave_sel[2:0] $end
$upscope $end
$scope module irq_manager $end
$var reg 1 s gls_clk $end
$var reg 1 t gls_reset $end
$var reg 2 u wbs_s1_address[1:0] $end
$var reg 16 v wbs_s1_readdata[15:0] $end
$var reg 16 w wbs_s1_writedata[15:0] $end
$var reg 1 x wbs_s1_ack $end
$var reg 1 y wbs_s1_strobe $end
$var reg 1 z wbs_s1_cycle $end
$var reg 1 { wbs_s1_write $end
$var reg 1 | irq_cs $end
$var reg 16 } irqport[15:0] $end
$var reg 1 !" start $end
$var reg 1 "" gls_irq $end
$var reg 16 #" irq_r[15:0] $end
$var reg 16 $" irq_old[15:0] $end
$var reg 16 %" irq_pend[15:0] $end
$var reg 16 &" irq_ack[15:0] $end
$var reg 16 '" irq_mask[15:0] $end
$var reg 16 (" readdata[15:0] $end
$var reg 1 )" rd_ack $end
$var reg 1 *" wr_ack $end
$upscope $end
$scope module rw_cnt_ent $end
$var reg 1 +" clk $end
$var reg 1 ," reset $end
$var reg 2 -" addr[1:0] $end
$var reg 1 ." strobe $end
$var reg 1 /" c_sel $end
$var reg 1 0" m_ack $end
$var reg 1 1" cycle $end
$var reg 1 2" wr $end
$var reg 16 3" dout[15:0] $end
$var reg 16 4" din[15:0] $end
$var reg 1 5" start $end
$var reg 1 6" finish $end
$var reg 1 7" ack $end
$var reg 16 8" r[15:0] $end
$var reg 16 9" g[15:0] $end
$var reg 16 :" b[15:0] $end
$var reg 8 ;" pixon[7:0] $end
$var reg 1 <" filter_finish $end
$var reg 1 =" ready $end
$scope module filter_unit $end
$var reg 1 >" clk $end
$var reg 1 ?" reset $end
$var reg 8 @" r_in[7:0] $end
$var reg 8 A" g_in[7:0] $end
$var reg 8 B" b_in[7:0] $end
$var reg 1 C" start $end
$var reg 8 D" pixon[7:0] $end
$var reg 1 E" ready $end
$var reg 9 F" r[8:0] $end
$var reg 9 G" g[8:0] $end
$var reg 9 H" b[8:0] $end
$var reg 9 I" min[8:0] $end
$var reg 9 J" v[8:0] $end
$var reg 18 K" ph[17:0] $end
$var reg 18 L" subx4[17:0] $end
$var reg 18 M" subx64[17:0] $end
$var reg 18 N" subx[17:0] $end
$var reg 18 O" ph_th_l[17:0] $end
$var reg 18 P" ph_th_h[17:0] $end
$var reg 9 Q" s[8:0] $end
$var reg 9 R" sub[8:0] $end
$var reg 9 S" sub1[8:0] $end
$var reg 9 T" sub2[8:0] $end
$var reg 9 U" adder[8:0] $end
$var reg 1 V" mult1_ready $end
$var reg 1 W" mult2_ready $end
$var reg 1 X" state $end
$var reg 1 Y" tick $end
$scope module mult1 $end
$var reg 1 Z" clk $end
$var reg 1 [" reset $end
$var reg 1 \" start $end
$var reg 9 ]" a_in[8:0] $end
$var reg 9 ^" b_in[8:0] $end
$var reg 18 _" r[17:0] $end
$var reg 1 `" ready $end
$comment state_reg is not handled $end
$comment state_next is not handled $end
$var reg 9 a" a_reg[8:0] $end
$var reg 9 b" a_next[8:0] $end
$var reg 4 c" n_reg[3:0] $end
$var reg 4 d" n_next[3:0] $end
$var reg 19 e" p_reg[18:0] $end
$var reg 19 f" p_next[18:0] $end
$var reg 10 g" pu_next[9:0] $end
$var reg 10 h" pu_reg[9:0] $end
$var reg 9 i" pl_reg[8:0] $end
$var reg 9 j" ua_in[8:0] $end
$var reg 9 k" ub_in[8:0] $end
$var reg 1 l" rsign $end
$upscope $end
$scope module mult2 $end
$var reg 1 m" clk $end
$var reg 1 n" reset $end
$var reg 1 o" start $end
$var reg 9 p" a_in[8:0] $end
$var reg 9 q" b_in[8:0] $end
$var reg 18 r" r[17:0] $end
$var reg 1 s" ready $end
$comment state_reg is not handled $end
$comment state_next is not handled $end
$var reg 9 t" a_reg[8:0] $end
$var reg 9 u" a_next[8:0] $end
$var reg 4 v" n_reg[3:0] $end
$var reg 4 w" n_next[3:0] $end
$var reg 19 x" p_reg[18:0] $end
$var reg 19 y" p_next[18:0] $end
$var reg 10 z" pu_next[9:0] $end
$var reg 10 {" pu_reg[9:0] $end
$var reg 9 |" pl_reg[8:0] $end
$var reg 9 }" ua_in[8:0] $end
$var reg 9 !# ub_in[8:0] $end
$var reg 1 "# rsign $end
$upscope $end
$upscope $end
$upscope $end
$upscope $end
$enddefinitions $end
#0
1!
1"
1#
0$
1%
0&
1'
b0000000000000000 (
b0000000000000000 )
1*
1+
1,
0-
0.
1/
bUUU 0
U1
bUUUUUUUUUUUUUUUU 2
b0000000000000000 3
b0000000000000000 4
05
06
U7
08
09
0:
0;
0<
0=
b0000000000000000 >
bUUUUUUUUUUUUUUUU ?
U@
0A
0B
b0000000000000000 C
UD
0E
UF
0G
0H
0I
0J
0K
bUUUUUUUUUUUUUUUUUUUUU L
bUUUUUUUUUUUUUUUUUUUUU M
0N
0O
0P
0Q
0R
0S
b0000000000000000 T
1U
1V
1W
0X
0Y
bUUUUUUUUUUUUUUUU Z
b0000000000000000 [
b0000000000000000 \
0]
0^
U_
0`
0a
0b
0c
bUUUUUUUUUUUUUUUU d
bUUUUUUUUUUUUUUUU e
0f
0g
bUUUUUUUUUUUUUUUU h
0i
0j
0k
bUUU l
Um
0n
0o
0p
Uq
bUUU r
0s
0t
bUU u
b0000000000000000 v
b0000000000000000 w
Ux
0y
0z
0{
U|
b0000000000000000 }
U!"
1""
bUUUUUUUUUUUUUUUU #"
bUUUUUUUUUUUUUUUU $"
bUUUUUUUUUUUUUUUU %"
bUUUUUUUUUUUUUUUU &"
bUUUUUUUUUUUUUUUU '"
bUUUUUUUUUUUUUUUU ("
U)"
U*"
0+"
0,"
bUU -"
0."
U/"
U0"
01"
02"
bUUUUUUUUUUUUUUUU 3"
b0000000000000000 4"
U5"
06"
07"
bUUUUUUUUUUUUUUUU 8"
bUUUUUUUUUUUUUUUU 9"
bUUUUUUUUUUUUUUUU :"
b00000000 ;"
0<"
0="
0>"
0?"
bUUUUUUUU @"
bUUUUUUUU A"
bUUUUUUUU B"
UC"
b00000000 D"
0E"
b0UUUUUUUU F"
b0UUUUUUUU G"
b0UUUUUUUU H"
b0UUUUUUUU I"
b0UUUUUUUU J"
bXXXXXXXXXXXXXXXXXX K"
b0000000XXXXXXXXX00 L"
b000XXXXXXXXX000000 M"
bUUUUUUUUUUUUUUUUUU N"
bXXXXXXXXXXXXXXXXXX O"
bXXXXXXXXXXXXXXXXXX P"
bXXXXXXXXX Q"
bXXXXXXXXX R"
b000111100 S"
b010110100 T"
b000000000 U"
0V"
0W"
0X"
0Y"
0Z"
0["
U\"
b000111100 ]"
bXXXXXXXXX ^"
bXXXXXXXXXXXXXXXXXX _"
0`"
bUUUUUUUUU a"
bUUUUUUUUU b"
bUUUU c"
bUUUU d"
bUUUUUUUUUUUUUUUUUUU e"
bUUUUUUUUUUUUUUUUUUU f"
bUUUUUUUUUU g"
bUUUUUUUUUU h"
bUUUUUUUUU i"
b000111100 j"
bXXXXXXXXX k"
Xl"
0m"
0n"
Uo"
b010110100 p"
bXXXXXXXXX q"
bXXXXXXXXXXXXXXXXXX r"
0s"
bUUUUUUUUU t"
bUUUUUUUUU u"
bUUUU v"
bUUUU w"
bUUUUUUUUUUUUUUUUUUU x"
bUUUUUUUUUUUUUUUUUUU y"
bUUUUUUUUUU z"
bUUUUUUUUUU {"
bUUUUUUUUU |"
b010110100 }"
bXXXXXXXXX !#
X"#
#10000000
1$
0'
1-
0/
b000 0
01
b0000000000000000 2
07
1<
1=
b0000000000000000 ?
0@
0F
1G
1H
b000000000000000000000 L
b000000000000000000000 M
1N
1O
1P
1R
1X
1Y
b0000000000000000 Z
0_
b0000000000000000 d
b0000000000000000 e
1f
1g
b0000000000000000 h
b000 l
0m
0q
b000 r
1s
1t
b00 u
0x
0|
0!"
0""
b0000000000000000 #"
b0000000000000000 $"
b0000000000000000 %"
b0000000000000000 &"
b1111111111111111 '"
b0000000000000000 ("
0)"
0*"
1+"
1,"
b00 -"
0/"
b0000000000000000 3"
05"
b0000000000000000 8"
b0000000000000000 9"
b0000000000000000 :"
1>"
1?"
b00000000 @"
b00000000 A"
b00000000 B"
0C"
b000000000 F"
b000000000 G"
b000000000 H"
b000000000 I"
b000000000 J"
b000000000000000000 K"
b000000000000000000 L"
b000000000000000000 M"
b000000000000000000 O"
b000000000000000000 P"
b000000000 Q"
b000000000 R"
b111000100 S"
b000111100 T"
b001111000 U"
1Z"
1["
0\"
b111000100 ]"
b000000000 ^"
b000000000000000000 _"
b000000000 a"
b000000000 b"
b0000 c"
b0000 d"
b0000000000000000000 e"
b0000000000000000000 f"
b0000000000 h"
b000000000 i"
b000000000 k"
1l"
1m"
1n"
0o"
b000111100 p"
b000000000 q"
b000000000000000000 r"
b000000000 t"
b000000000 u"
b0000 v"
b0000 w"
b0000000000000000000 x"
b0000000000000000000 y"
b0000000000 {"
b000000000 |"
b000111100 }"
b000000000 !#
0"#
#20000000
0$
0%
0-
0=
0G
0N
0O
0Y
0f
0s
0+"
0>"
0Z"
0m"
#30000000
1$
1-
0<
1=
1G
0H
1N
1O
0P
1Q
0R
0X
1Y
1f
0g
1s
0t
1+"
0,"
1>"
0?"
1Z"
0["
1m"
0n"
#40000000
0$
0-
0=
0G
0N
0O
0Y
0f
0s
0+"
0>"
0Z"
0m"
#50000000
1$
1-
1=
1G
1N
1O
1Y
1f
1s
1+"
1>"
1Z"
1m"
#60000000
0#
0$
b0000000000000010 (
b0000000000000010 )
0,
0-
0=
0G
0N
0O
b0000000000000010 T
0W
0Y
0f
0s
0+"
0>"
0Z"
0m"
#70000000
1$
1-
b0000000000000010 2
1=
1G
1N
1O
1Y
b0000000000000010 Z
b0000000000000010 e
1f
b0000000000000010 h
1s
b01 u
1+"
b01 -"
1>"
1Z"
1m"
#80000000
0!
0"
1#
0$
b1111111111111111 (
b1111111111111111 )
0*
0+
1,
0-
15
16
18
0=
0G
0N
0O
b1111111111111111 T
0U
0V
1W
0Y
1]
1^
1`
1a
1c
0f
1i
1j
1k
0s
0+"
0>"
0Z"
0m"
#90000000
1$
1-
b001 0
b1111111111111111 4
19
1:
1;
1=
1G
1N
1O
1Y
b1111111111111111 \
b1111111111111111 d
1f
b001 l
1n
1o
1p
1q
b001 r
1s
b1111111111111111 w
1y
1z
1{
1|
1+"
1."
11"
12"
b1111111111111111 4"
1>"
1Z"
1m"
#100000000
0$
0-
0=
0G
0N
0O
0Y
0f
0s
0+"
0>"
0Z"
0m"
#110000000
1$
1-
17
1=
1@
1G
1N
1O
1Y
1_
1f
1s
1x
b1111111111111111 &"
1*"
1+"
1>"
1Z"
1m"
#120000000
0$
0-
0=
0G
0N
0O
0Y
0f
0s
0+"
0>"
0Z"
0m"
#130000000
1$
1-
1=
1G
1N
1O
1Y
1f
1s
1+"
1>"
1Z"
1m"
#140000000
0$
0-
0=
0G
0N
0O
0Y
0f
0s
0+"
0>"
0Z"
0m"
#150000000
1$
1-
1=
1G
1N
1O
1Y
1f
1s
1+"
1>"
1Z"
1m"
#160000000
1!
0$
1*
0-
b0000000000000000 4
05
06
08
09
0:
0;
0=
0G
0N
0O
1U
0Y
b0000000000000000 \
0]
0^
0`
0a
0c
0f
0i
0j
0k
0n
0o
0p
0s
b0000000000000000 w
0y
0z
0{
0+"
0."
01"
02"
b0000000000000000 4"
0>"
0Z"
0m"
#170000000
1$
1-
b000 0
07
1=
0@
1G
1N
1O
1Y
0_
1f
b000 l
0q
b000 r
1s
0x
0|
b0000000000000000 &"
0*"
1+"
1>"
1Z"
1m"
#180000000
0$
0-
0=
0G
0N
0O
0Y
0f
0s
0+"
0>"
0Z"
0m"
#190000000
1$
1-
1=
1G
1N
1O
1Y
1f
1s
1+"
1>"
1Z"
1m"
#200000000
0$
0-
0=
0G
0N
0O
0Y
0f
0s
0+"
0>"
0Z"
0m"
#210000000
1$
1-
1=
1G
1N
1O
1Y
1f
1s
1+"
1>"
1Z"
1m"
#220000000
0$
0-
0=
0G
0N
0O
0Y
0f
0s
0+"
0>"
0Z"
0m"
#230000000
1$
1-
1=
1G
1N
1O
1Y
1f
1s
1+"
1>"
1Z"
1m"
#240000000
0$
0-
0=
0G
0N
0O
0Y
0f
0s
0+"
0>"
0Z"
0m"
#250000000
1$
1-
1=
1G
1N
1O
1Y
1f
1s
1+"
1>"
1Z"
1m"
#260000000
0$
0-
0=
0G
0N
0O
0Y
0f
0s
0+"
0>"
0Z"
0m"
#270000000
1$
1-
1=
1G
1N
1O
1Y
1f
1s
1+"
1>"
1Z"
1m"
#280000000
0$
0-
0=
0G
0N
0O
0Y
0f
0s
0+"
0>"
0Z"
0m"
#290000000
1$
1-
1=
1G
1N
1O
1Y
1f
1s
1+"
1>"
1Z"
1m"
#300000000
0#
0$
b0000000000001000 (
b0000000000001000 )
0,
0-
0=
0G
0N
0O
b0000000000001000 T
0W
0Y
0f
0s
0+"
0>"
0Z"
0m"
#310000000
1$
1-
b0000000000001000 2
1=
1G
1N
1O
1Y
b0000000000001000 Z
b0000000000001000 e
1f
b0000000000001000 h
1s
b00 u
1+"
b00 -"
1>"
1Z"
1m"
#320000000
0!
1#
0$
b0000000001011110 (
b0000000001011110 )
0*
1,
0-
b1111111111111111 4
15
16
18
0=
0G
0N
0O
b0000000001011110 T
0U
1W
0Y
b1111111111111111 \
1]
1^
1`
1a
1c
0f
1i
1j
1k
0s
b1111111111111111 w
0+"
b1111111111111111 4"
0>"
0Z"
0m"
#330000000
1$
1-
b010 0
b0000000001011110 4
19
1:
1;
1=
1G
1N
1O
1Y
b0000000001011110 \
b0000000001011110 d
1f
b010 l
1n
1o
1p
1q
b010 r
1s
b0000000001011110 w
1y
1z
1{
1+"
1."
1/"
11"
12"
b0000000001011110 4"
1>"
1Z"
1m"
#340000000
0$
0-
0=
0G
0N
0O
0Y
0f
0s
0+"
0>"
0Z"
0m"
#350000000
1$
1-
1=
1G
1N
1O
1Y
1f
1s
1+"
b0000000001011110 8"
1>"
b01011110 @"
b001011110 F"
b001011110 J"
b000000000000000000 K"
b000000000000000000 L"
b000000000000000000 M"
b001011110 Q"
b000000000 R"
b000111100 S"
b010110100 T"
b000000000 U"
1Z"
b000111100 ]"
b001011110 ^"
b001011110 k"
0l"
1m"
b010110100 p"
b001011110 q"
b010110100 }"
b001011110 !#
#360000000
0$
0-
0=
0G
0N
0O
0Y
0f
0s
0+"
0>"
0Z"
0m"
#370000000
1$
1-
1=
1G
1N
1O
1Y
1f
1s
1+"
1>"
1Z"
1m"
#380000000
0$
0-
0=
0G
0N
0O
0Y
0f
0s
0+"
0>"
0Z"
0m"
#390000000
1$
1-
1=
1G
1N
1O
1Y
1f
1s
1+"
1>"
1Z"
1m"
#400000000
1!
0$
1*
0-
b0000000000000000 4
05
06
08
09
0:
0;
0=
0G
0N
0O
1U
0Y
b0000000000000000 \
0]
0^
0`
0a
0c
0f
0i
0j
0k
0n
0o
0p
0s
b0000000000000000 w
0y
0z
0{
0+"
0."
01"
02"
b0000000000000000 4"
0>"
0Z"
0m"
#410000000
1$
1-
b000 0
1=
1G
1N
1O
1Y
1f
b000 l
0q
b000 r
1s
1+"
0/"
1>"
1Z"
1m"
#420000000
0$
0-
0=
0G
0N
0O
0Y
0f
0s
0+"
0>"
0Z"
0m"
#430000000
1$
1-
1=
1G
1N
1O
1Y
1f
1s
1+"
1>"
1Z"
1m"
#440000000
0$
0-
0=
0G
0N
0O
0Y
0f
0s
0+"
0>"
0Z"
0m"
#450000000
1$
1-
1=
1G
1N
1O
1Y
1f
1s
1+"
1>"
1Z"
1m"
#460000000
0$
0-
0=
0G
0N
0O
0Y
0f
0s
0+"
0>"
0Z"
0m"
#470000000
1$
1-
1=
1G
1N
1O
1Y
1f
1s
1+"
1>"
1Z"
1m"
#480000000
0$
0-
0=
0G
0N
0O
0Y
0f
0s
0+"
0>"
0Z"
0m"
#490000000
1$
1-
1=
1G
1N
1O
1Y
1f
1s
1+"
1>"
1Z"
1m"
#500000000
0$
0-
0=
0G
0N
0O
0Y
0f
0s
0+"
0>"
0Z"
0m"
#510000000
1$
1-
1=
1G
1N
1O
1Y
1f
1s
1+"
1>"
1Z"
1m"
#520000000
0$
0-
0=
0G
0N
0O
0Y
0f
0s
0+"
0>"
0Z"
0m"
#530000000
1$
1-
1=
1G
1N
1O
1Y
1f
1s
1+"
1>"
1Z"
1m"
#540000000
0#
0$
b0000000000001010 (
b0000000000001010 )
0,
0-
0=
0G
0N
0O
b0000000000001010 T
0W
0Y
0f
0s
0+"
0>"
0Z"
0m"
#550000000
1$
1-
b0000000000001010 2
1=
1G
1N
1O
1Y
b0000000000001010 Z
b0000000000001010 e
1f
b0000000000001010 h
1s
b01 u
1+"
b01 -"
1>"
1Z"
1m"
#560000000
0!
1#
0$
b0000000001110010 (
b0000000001110010 )
0*
1,
0-
b0000000001011110 4
15
16
18
0=
0G
0N
0O
b0000000001110010 T
0U
1W
0Y
b0000000001011110 \
1]
1^
1`
1a
1c
0f
1i
1j
1k
0s
b0000000001011110 w
0+"
b0000000001011110 4"
0>"
0Z"
0m"
#570000000
1$
1-
b010 0
b0000000001110010 4
19
1:
1;
1=
1G
1N
1O
1Y
b0000000001110010 \
b0000000001110010 d
1f
b010 l
1n
1o
1p
1q
b010 r
1s
b0000000001110010 w
1y
1z
1{
1+"
1."
1/"
11"
12"
b0000000001110010 4"
1>"
1Z"
1m"
#580000000
0$
0-
0=
0G
0N
0O
0Y
0f
0s
0+"
0>"
0Z"
0m"
#590000000
1$
1-
1=
1G
1N
1O
1Y
1f
1s
1+"
b0000000001110010 9"
b00000000 ;"
1>"
b01110010 A"
b00000000 D"
b001110010 G"
b001110010 J"
b111110100111111000 K"
b111111111010001000 L"
b111110100010000000 M"
b001110010 Q"
b110100010 R"
b111000100 S"
b000111100 T"
b001111000 U"
1Z"
b111000100 ]"
b001110010 ^"
b001110010 k"
1l"
1m"
b000111100 p"
b001110010 q"
b000111100 }"
b001110010 !#
#600000000
0$
0-
0=
0G
0N
0O
0Y
0f
0s
0+"
0>"
0Z"
0m"
#610000000
1$
1-
1=
1G
1N
1O
1Y
1f
1s
1+"
1>"
1Z"
1m"
#620000000
0$
0-
0=
0G
0N
0O
0Y
0f
0s
0+"
0>"
0Z"
0m"
#630000000
1$
1-
1=
1G
1N
1O
1Y
1f
1s
1+"
1>"
1Z"
1m"
#640000000
1!
0$
1*
0-
b0000000000000000 4
05
06
08
09
0:
0;
0=
0G
0N
0O
1U
0Y
b0000000000000000 \
0]
0^
0`
0a
0c
0f
0i
0j
0k
0n
0o
0p
0s
b0000000000000000 w
0y
0z
0{
0+"
0."
01"
02"
b0000000000000000 4"
0>"
0Z"
0m"
#650000000
1$
1-
b000 0
1=
1G
1N
1O
1Y
1f
b000 l
0q
b000 r
1s
1+"
0/"
1>"
1Z"
1m"
#660000000
0$
0-
0=
0G
0N
0O
0Y
0f
0s
0+"
0>"
0Z"
0m"
#670000000
1$
1-
1=
1G
1N
1O
1Y
1f
1s
1+"
1>"
1Z"
1m"
#680000000
0$
0-
0=
0G
0N
0O
0Y
0f
0s
0+"
0>"
0Z"
0m"
#690000000
1$
1-
1=
1G
1N
1O
1Y
1f
1s
1+"
1>"
1Z"
1m"
#700000000
0$
0-
0=
0G
0N
0O
0Y
0f
0s
0+"
0>"
0Z"
0m"
#710000000
1$
1-
1=
1G
1N
1O
1Y
1f
1s
1+"
1>"
1Z"
1m"
#720000000
0$
0-
0=
0G
0N
0O
0Y
0f
0s
0+"
0>"
0Z"
0m"
#730000000
1$
1-
1=
1G
1N
1O
1Y
1f
1s
1+"
1>"
1Z"
1m"
#740000000
0$
0-
0=
0G
0N
0O
0Y
0f
0s
0+"
0>"
0Z"
0m"
#750000000
1$
1-
1=
1G
1N
1O
1Y
1f
1s
1+"
1>"
1Z"
1m"
#760000000
0$
0-
0=
0G
0N
0O
0Y
0f
0s
0+"
0>"
0Z"
0m"
#770000000
1$
1-
1=
1G
1N
1O
1Y
1f
1s
1+"
1>"
1Z"
1m"
#780000000
0#
0$
b0000000000001100 (
b0000000000001100 )
0,
0-
0=
0G
0N
0O
b0000000000001100 T
0W
0Y
0f
0s
0+"
0>"
0Z"
0m"
#790000000
1$
1-
b0000000000001100 2
1=
1G
1N
1O
1Y
b0000000000001100 Z
b0000000000001100 e
1f
b0000000000001100 h
1s
b10 u
1+"
b10 -"
1>"
1Z"
1m"
#800000000
0!
1#
0$
b0000000001001110 (
b0000000001001110 )
0*
1,
0-
b0000000001110010 4
15
16
18
0=
0G
0N
0O
b0000000001001110 T
0U
1W
0Y
b0000000001110010 \
1]
1^
1`
1a
1c
0f
1i
1j
1k
0s
b0000000001110010 w
0+"
b0000000001110010 4"
0>"
0Z"
0m"
#810000000
1$
1-
b010 0
b0000000001001110 4
19
1:
1;
1=
1G
1N
1O
1Y
b0000000001001110 \
b0000000001001110 d
1f
b010 l
1n
1o
1p
1q
b010 r
1s
b0000000001001110 w
1y
1z
1{
1+"
1."
1/"
11"
12"
b0000000001001110 4"
1>"
1Z"
1m"
#820000000
0$
0-
0=
0G
0N
0O
0Y
0f
0s
0+"
0>"
0Z"
0m"
#830000000
1$
1-
1=
1G
1N
1O
1Y
1f
1s
1+"
b0000000001001110 :"
1>"
b01001110 B"
b001001110 H"
b001001110 I"
b111111110001000000 K"
b111111111111000000 L"
b111111110000000000 M"
b000100100 Q"
b111110000 R"
1Z"
b000100100 ^"
b000100100 k"
1m"
b000100100 q"
b000100100 !#
#840000000
0$
0-
0=
0G
0N
0O
0Y
0f
0s
0+"
0>"
0Z"
0m"
#850000000
1$
1-
1=
1G
1N
1O
1Y
1f
1s
1+"
1>"
1Z"
1m"
#860000000
0$
0-
0=
0G
0N
0O
0Y
0f
0s
0+"
0>"
0Z"
0m"
#870000000
1$
1-
1=
1G
1N
1O
1Y
1f
1s
1+"
1>"
1Z"
1m"
#880000000
1!
0$
1*
0-
b0000000000000000 4
05
06
08
09
0:
0;
0=
0G
0N
0O
1U
0Y
b0000000000000000 \
0]
0^
0`
0a
0c
0f
0i
0j
0k
0n
0o
0p
0s
b0000000000000000 w
0y
0z
0{
0+"
0."
01"
02"
b0000000000000000 4"
0>"
0Z"
0m"
#890000000
1$
1-
b000 0
1=
1G
1N
1O
1Y
1f
b000 l
0q
b000 r
1s
1+"
0/"
1>"
1Z"
1m"
#900000000
0$
0-
0=
0G
0N
0O
0Y
0f
0s
0+"
0>"
0Z"
0m"
#910000000
1$
1-
1=
1G
1N
1O
1Y
1f
1s
1+"
1>"
1Z"
1m"
#920000000
0$
0-
0=
0G
0N
0O
0Y
0f
0s
0+"
0>"
0Z"
0m"
#930000000
1$
1-
1=
1G
1N
1O
1Y
1f
1s
1+"
1>"
1Z"
1m"
#940000000
0$
0-
0=
0G
0N
0O
0Y
0f
0s
0+"
0>"
0Z"
0m"
#950000000
1$
1-
1=
1G
1N
1O
1Y
1f
1s
1+"
1>"
1Z"
1m"
#960000000
0$
0-
0=
0G
0N
0O
0Y
0f
0s
0+"
0>"
0Z"
0m"
#970000000
1$
1-
1=
1G
1N
1O
1Y
1f
1s
1+"
1>"
1Z"
1m"
#980000000
0$
0-
0=
0G
0N
0O
0Y
0f
0s
0+"
0>"
0Z"
0m"
#990000000
1$
1-
1=
1G
1N
1O
1Y
1f
1s
1+"
1>"
1Z"
1m"
#1000000000
0$
0-
0=
0G
0N
0O
0Y
0f
0s
0+"
0>"
0Z"
0m"
#1010000000
1$
1-
1=
1G
1N
1O
1Y
1f
1s
1+"
1>"
1Z"
1m"
#1020000000
0#
0$
b0000000000000100 (
b0000000000000100 )
0,
0-
0=
0G
0N
0O
b0000000000000100 T
0W
0Y
0f
0s
0+"
0>"
0Z"
0m"
#1030000000
1$
1-
b0000000000000100 2
1=
1G
1N
1O
1Y
b0000000000000100 Z
b0000000000000100 e
1f
b0000000000000100 h
1s
1+"
1>"
1Z"
1m"
#1040000000
0!
1#
0$
b1111111111111111 (
b1111111111111111 )
0*
1,
0-
b0000000001001110 4
15
16
18
0=
0G
0N
0O
b1111111111111111 T
0U
1W
0Y
b0000000001001110 \
1]
1^
1`
1a
1c
0f
1i
1j
1k
0s
b0000000001001110 w
0+"
b0000000001001110 4"
0>"
0Z"
0m"
#1050000000
1$
1-
b001 0
b1111111111111111 4
19
1:
1;
1=
1G
1N
1O
1Y
b1111111111111111 \
b1111111111111111 d
1f
b001 l
1n
1o
1p
1q
b001 r
1s
b1111111111111111 w
1y
1z
1{
1|
1+"
1."
11"
12"
b1111111111111111 4"
1>"
1Z"
1m"
#1060000000
0$
0-
0=
0G
0N
0O
0Y
0f
0s
0+"
0>"
0Z"
0m"
#1070000000
1$
1-
17
1=
1@
1F
1G
1N
1O
1Y
1_
1f
1s
1x
1!"
1*"
1+"
15"
1>"
1C"
1Z"
1\"
b000111100 b"
b1001 d"
b0000000000000100100 f"
b0000000000 g"
1m"
1o"
b000111100 u"
b1001 w"
b0000000000000100100 y"
b0000000000 z"
#1080000000
0$
0-
0=
0G
0N
0O
0Y
0f
0s
0+"
0>"
0Z"
0m"
#1090000000
1$
1-
1=
0F
1G
1N
1O
1Y
1f
1s
0!"
1+"
05"
1>"
0C"
b111111111111011100 O"
b000000000000100100 P"
1Z"
0\"
b111111111111011100 _"
b000111100 a"
b1001 c"
b1000 d"
b0000000000000100100 e"
b0000000000000010010 f"
b000100100 i"
1m"
0o"
b000000000000100100 r"
b000111100 t"
b1001 v"
b1000 w"
b0000000000000100100 x"
b0000000000000010010 y"
b000100100 |"
#1100000000
0$
0-
0=
0G
0N
0O
0Y
0f
0s
0+"
0>"
0Z"
0m"
#1110000000
1$
1-
1=
1G
1N
1O
1Y
1f
1s
1+"
1>"
b111111111111101110 O"
b000000000000010010 P"
1Z"
b111111111111101110 _"
b1000 c"
b0111 d"
b0000000000000010010 e"
b0000000000000001001 f"
b000010010 i"
1m"
b000000000000010010 r"
b1000 v"
b0111 w"
b0000000000000010010 x"
b0000000000000001001 y"
b000010010 |"
#1120000000
1!
0$
1*
0-
b0000000000000000 4
05
06
08
09
0:
0;
0=
0G
0N
0O
1U
0Y
b0000000000000000 \
0]
0^
0`
0a
0c
0f
0i
0j
0k
0n
0o
0p
0s
b0000000000000000 w
0y
0z
0{
0+"
0."
01"
02"
b0000000000000000 4"
0>"
0Z"
0m"
