hardware/wb_irq/tb/test.vcd
$date
  Tue Oct 13 17:43:19 2015
$end
$version
  GHDL v0
$end
$timescale
  1 fs
$end
$var reg 1 ! imx_cs_n $end
$var reg 1 " imx_rw $end
$var reg 1 # imx_adv $end
$var reg 1 $ clk $end
$var reg 1 % reset $end
$var reg 1 & button $end
$var reg 1 ' irq $end
$var reg 16 ( imx_da[15:0] $end
$scope module uut $end
$var reg 16 ) imx_da[15:0] $end
$var reg 1 * imx_cs_n $end
$var reg 1 + imx_rw $end
$var reg 1 , imx_adv $end
$var reg 1 - ext_clk $end
$var reg 1 . led_a $end
$var reg 1 / button $end
$var reg 1 0 gls_irq $end
$var reg 3 1 c_sel[2:0] $end
$var reg 1 2 adv $end
$var reg 1 3 led_ack $end
$var reg 1 4 bt_ack $end
$var reg 16 5 led_dout[15:0] $end
$var reg 16 6 bt_dout[15:0] $end
$var reg 16 7 wbm_address[15:0] $end
$var reg 16 8 wbm_readdata[15:0] $end
$var reg 16 9 wbm_writedata[15:0] $end
$var reg 1 : wbm_strobe $end
$var reg 1 ; wbm_write $end
$var reg 1 < wbm_ack $end
$var reg 1 = wbm_cycle $end
$var reg 1 > strobe $end
$var reg 1 ? cycle $end
$var reg 1 @ wr $end
$var reg 1 A gls_reset $end
$var reg 1 B gls_clk $end
$var reg 16 C irq_dout[15:0] $end
$var reg 1 D irq_ack $end
$var reg 1 E bt_irq $end
$var reg 16 F irq_port[15:0] $end
$scope module reset_gen $end
$var reg 1 G ext_clk $end
$var reg 1 H gls_clk $end
$var reg 1 I gls_reset $end
$var reg 1 J dly $end
$var reg 1 K rst $end
$var reg 1 L ext_reset $end
$upscope $end
$scope module imx51_wb_16 $end
$var reg 16 M imx_da[15:0] $end
$var reg 1 N imx_cs_n $end
$var reg 1 O imx_rw $end
$var reg 1 P imx_adv $end
$var reg 1 Q gls_reset $end
$var reg 1 R gls_clk $end
$var reg 16 S wbm_address[15:0] $end
$var reg 16 T wbm_readdata[15:0] $end
$var reg 16 U wbm_writedata[15:0] $end
$var reg 1 V wbm_strobe $end
$var reg 1 W wbm_write $end
$var reg 1 X wbm_ack $end
$var reg 1 Y wbm_cycle $end
$var reg 1 Z write $end
$var reg 1 [ read $end
$var reg 1 \ strobe $end
$var reg 16 ] writedata[15:0] $end
$var reg 16 ^ address[15:0] $end
$upscope $end
$scope module interface $end
$var reg 1 _ clk $end
$var reg 1 ` reset $end
$var reg 16 a addr_in[15:0] $end
$var reg 1 b strobe_in $end
$var reg 1 c cycle_in $end
$var reg 1 d wr_in $end
$var reg 3 e c_sel[2:0] $end
$var reg 1 f adv $end
$var reg 1 g strobe_out $end
$var reg 1 h cycle_out $end
$var reg 1 i wr_out $end
$var reg 1 j slave_active $end
$var reg 3 k slave_sel[2:0] $end
$upscope $end
$scope module irq_manager $end
$var reg 1 l gls_clk $end
$var reg 1 m gls_reset $end
$var reg 2 n wbs_s1_address[1:0] $end
$var reg 16 o wbs_s1_readdata[15:0] $end
$var reg 16 p wbs_s1_writedata[15:0] $end
$var reg 1 q wbs_s1_ack $end
$var reg 1 r wbs_s1_strobe $end
$var reg 1 s wbs_s1_cycle $end
$var reg 1 t wbs_s1_write $end
$var reg 1 u irq_cs $end
$var reg 16 v irqport[15:0] $end
$var reg 1 w gls_irq $end
$var reg 16 x irq_r[15:0] $end
$var reg 16 y irq_old[15:0] $end
$var reg 16 z irq_pend[15:0] $end
$var reg 16 { irq_ack[15:0] $end
$var reg 16 | irq_mask[15:0] $end
$var reg 16 } readdata[15:0] $end
$var reg 1 !" rd_ack $end
$var reg 1 "" wr_ack $end
$upscope $end
$scope module led_ent $end
$var reg 1 #" clk $end
$var reg 1 $" reset $end
$var reg 16 %" din[15:0] $end
$var reg 1 &" strobe $end
$var reg 1 '" cycle $end
$var reg 1 (" c_sel $end
$var reg 1 )" adv $end
$var reg 1 *" ack $end
$var reg 1 +" wr $end
$var reg 16 ," dout[15:0] $end
$var reg 1 -" led $end
$var reg 16 ." reg[15:0] $end
$upscope $end
$scope module but_ent $end
$var reg 1 /" clk $end
$var reg 1 0" reset $end
$var reg 1 1" strobe $end
$var reg 1 2" cycle $end
$var reg 1 3" c_sel $end
$var reg 1 4" adv $end
$var reg 1 5" ack $end
$var reg 1 6" wr $end
$var reg 1 7" sw $end
$var reg 1 8" irq $end
$var reg 16 9" dout[15:0] $end
$var reg 16 :" reg[15:0] $end
$var reg 1 ;" db_level $end
$scope module debounce_unit $end
$var reg 1 <" clk $end
$var reg 1 =" reset $end
$var reg 1 >" sw $end
$var reg 1 ?" db_level $end
$var reg 1 @" db_tick $end
$comment state_reg is not handled $end
$comment state_next is not handled $end
$var reg 21 A" q_reg[20:0] $end
$var reg 21 B" q_next[20:0] $end
$upscope $end
$upscope $end
$upscope $end
$enddefinitions $end
#0
1!
1"
1#
0$
1%
0&
1'
b0000000000000000 (
b0000000000000000 )
1*
1+
1,
0-
1.
0/
10
bUUU 1
U2
03
04
bUUUUUUUUUUUUUUUU 5
bUUUUUUUUUUUUUUUU 6
bUUUUUUUUUUUUUUUU 7
b0000000000000000 8
b0000000000000000 9
0:
0;
U<
0=
0>
0?
0@
0A
0B
b0000000000000000 C
UD
0E
b0000000000000000 F
0G
0H
0I
0J
0K
0L
b0000000000000000 M
1N
1O
1P
0Q
0R
bUUUUUUUUUUUUUUUU S
b0000000000000000 T
b0000000000000000 U
0V
0W
UX
0Y
0Z
0[
0\
bUUUUUUUUUUUUUUUU ]
bUUUUUUUUUUUUUUUU ^
0_
0`
bUUUUUUUUUUUUUUUU a
0b
0c
0d
bUUU e
Uf
0g
0h
0i
Uj
bUUU k
0l
0m
bUU n
b0000000000000000 o
b0000000000000000 p
Uq
0r
0s
0t
Uu
b0000000000000000 v
1w
bUUUUUUUUUUUUUUUU x
bUUUUUUUUUUUUUUUU y
bUUUUUUUUUUUUUUUU z
bUUUUUUUUUUUUUUUU {
bUUUUUUUUUUUUUUUU |
bUUUUUUUUUUUUUUUU }
U!"
U""
0#"
0$"
b0000000000000000 %"
0&"
0'"
U("
U)"
0*"
0+"
bUUUUUUUUUUUUUUUU ,"
1-"
bUUUUUUUUUUUUUUUU ."
0/"
00"
01"
02"
U3"
U4"
05"
06"
07"
08"
bUUUUUUUUUUUUUUUU 9"
bUUUUUUUUUUUUUUUU :"
0;"
0<"
0="
0>"
0?"
0@"
bUUUUUUUUUUUUUUUUUUUUU A"
bUUUUUUUUUUUUUUUUUUUUU B"
#10000000
1$
0'
1-
00
b000 1
02
b0000000000000000 5
b0000000000000000 6
b0000000000000000 7
0<
1A
1B
0D
1G
1H
1I
1K
1Q
1R
b0000000000000000 S
0X
b0000000000000000 ]
b0000000000000000 ^
1_
1`
b0000000000000000 a
b000 e
0f
0j
b000 k
1l
1m
b00 n
0q
0u
0w
b0000000000000000 x
b0000000000000000 y
b0000000000000000 z
b0000000000000000 {
b0000000000000001 |
b0000000000000000 }
0!"
0""
1#"
1$"
0("
0)"
b0000000000000000 ,"
b0000000000000000 ."
1/"
10"
03"
04"
b0000000000000000 9"
b0000000000000000 :"
1<"
1="
b000000000000000000000 A"
b000000000000000000000 B"
#20000000
0$
0%
0-
0B
0G
0H
0R
0_
0l
0#"
0/"
0<"
#30000000
1$
1-
0A
1B
1G
1H
0I
1J
0K
0Q
1R
1_
0`
1l
0m
1#"
0$"
1/"
00"
1<"
0="
#40000000
0$
0-
0B
0G
0H
0R
0_
0l
0#"
0/"
0<"
#50000000
1$
1-
1B
1G
1H
1R
1_
1l
1#"
1/"
1<"
#60000000
0#
0$
b0000000000001000 (
b0000000000001000 )
0,
0-
0B
0G
0H
b0000000000001000 M
0P
0R
0_
0l
0#"
0/"
0<"
#70000000
1$
1-
b0000000000001000 7
1B
1G
1H
1R
b0000000000001000 S
b0000000000001000 ^
1_
b0000000000001000 a
1l
1#"
1/"
1<"
#80000000
0!
0"
1#
0$
b0001001000110100 (
b0001001000110100 )
0*
0+
1,
0-
1:
1;
1=
0B
0G
0H
b0001001000110100 M
0N
0O
1P
0R
1V
1W
1Y
1Z
1\
0_
1b
1c
1d
0l
0#"
0/"
0<"
#90000000
1$
1-
b010 1
13
b0001001000110100 9
1<
1>
1?
1@
1B
1G
1H
1R
b0001001000110100 U
1X
b0001001000110100 ]
1_
b010 e
1g
1h
1i
1j
b010 k
1l
b0001001000110100 p
1r
1s
1t
1#"
b0001001000110100 %"
1&"
1'"
1("
1*"
1+"
1/"
11"
12"
16"
1<"
#100000000
0$
0-
0B
0G
0H
0R
0_
0l
0#"
0/"
0<"
#110000000
1$
1-
1B
1G
1H
1R
1_
1l
1#"
b0001001000110100 ."
1/"
1<"
#120000000
0$
0-
0B
0G
0H
0R
0_
0l
0#"
0/"
0<"
#130000000
1$
1-
1B
1G
1H
1R
1_
1l
1#"
1/"
1<"
#140000000
0$
0-
0B
0G
0H
0R
0_
0l
0#"
0/"
0<"
#150000000
1$
1-
1B
1G
1H
1R
1_
1l
1#"
1/"
1<"
#160000000
1!
0$
1*
0-
03
b0000000000000000 9
0:
0;
0<
0=
0>
0?
0@
0B
0G
0H
1N
0R
b0000000000000000 U
0V
0W
0X
0Y
0Z
0\
0_
0b
0c
0d
0g
0h
0i
0l
b0000000000000000 p
0r
0s
0t
0#"
b0000000000000000 %"
0&"
0'"
0*"
0+"
0/"
01"
02"
06"
0<"
#170000000
1$
1-
b000 1
1B
1G
1H
1R
1_
b000 e
0j
b000 k
1l
1#"
0("
1/"
1<"
#180000000
0$
0-
0B
0G
0H
0R
0_
0l
0#"
0/"
0<"
#190000000
1$
1-
1B
1G
1H
1R
1_
1l
1#"
1/"
1<"
#200000000
0$
0-
0B
0G
0H
0R
0_
0l
0#"
0/"
0<"
#210000000
1$
1-
1B
1G
1H
1R
1_
1l
1#"
1/"
1<"
#220000000
0$
0-
0B
0G
0H
0R
0_
0l
0#"
0/"
0<"
#230000000
1$
1-
1B
1G
1H
1R
1_
1l
1#"
1/"
1<"
#240000000
0$
0-
0B
0G
0H
0R
0_
0l
0#"
0/"
0<"
#250000000
1$
1-
1B
1G
1H
1R
1_
1l
1#"
1/"
1<"
#260000000
1"
0$
b0000000000000000 (
b0000000000000000 )
1+
0-
0B
0G
0H
b0000000000000000 M
1O
0R
0_
0l
0#"
0/"
0<"
#270000000
1$
1-
1B
1G
1H
1R
b0000000000000000 ]
1_
1l
1#"
1/"
1<"
#280000000
0$
0-
0B
0G
0H
0R
0_
0l
0#"
0/"
0<"
#290000000
1$
1-
1B
1G
1H
1R
1_
1l
1#"
1/"
1<"
#300000000
0$
0-
0B
0G
0H
0R
0_
0l
0#"
0/"
0<"
#310000000
1$
1-
1B
1G
1H
1R
1_
1l
1#"
1/"
1<"
#320000000
0#
0$
b0000000000001000 (
b0000000000001000 )
0,
0-
0B
0G
0H
b0000000000001000 M
0P
0R
0_
0l
0#"
0/"
0<"
#330000000
1$
1-
1B
1G
1H
1R
1_
1l
1#"
1/"
1<"
#340000000
0!
1#
0$
b000000000000X000 (
b000000000000X000 )
0*
1,
0-
1:
1=
0B
0G
0H
b000000000000X000 M
0N
1P
0R
1V
1Y
1[
1\
0_
1b
1c
0l
0#"
0/"
0<"
#350000000
1$
1-
b010 1
13
1<
1>
1?
1B
1G
1H
1R
1X
b000000000000X000 ]
1_
b010 e
1g
1h
1j
b010 k
1l
1r
1s
1#"
1&"
1'"
1("
1*"
1/"
11"
12"
1<"
#360000000
0$
0-
0B
0G
0H
0R
0_
0l
0#"
0/"
0<"
#370000000
1$
b000X00X000XXXX00 (
b000X00X000XXXX00 )
1-
b0001001000110100 5
b0001001000110100 8
1B
1G
1H
b000X00X000XXXX00 M
1R
b0001001000110100 T
1_
1l
1#"
b0001001000110100 ,"
1/"
1<"
#380000000
0$
0-
0B
0G
0H
0R
0_
0l
0#"
0/"
0<"
#390000000
1$
1-
1B
1G
1H
1R
b000X00X000XXXX00 ]
1_
1l
1#"
1/"
1<"
#400000000
0$
0-
0B
0G
0H
0R
0_
0l
0#"
0/"
0<"
#410000000
1$
1-
1B
1G
1H
1R
1_
1l
1#"
1/"
1<"
#420000000
1!
0$
b0000000000001000 (
b0000000000001000 )
1*
0-
03
b0000000000000000 8
0:
0<
0=
0>
0?
0B
0G
0H
b0000000000001000 M
1N
0R
b0000000000000000 T
0V
0X
0Y
0[
0\
0_
0b
0c
0g
0h
0l
0r
0s
0#"
0&"
0'"
0*"
0/"
01"
02"
0<"
#430000000
1$
1-
b000 1
b0000000000000000 5
1B
1G
1H
1R
b0000000000001000 ]
1_
b000 e
0j
b000 k
1l
1#"
0("
b0000000000000000 ,"
1/"
1<"
#440000000
0$
0-
0B
0G
0H
0R
0_
0l
0#"
0/"
0<"
#450000000
1$
1-
1B
1G
1H
1R
1_
1l
1#"
1/"
1<"
#460000000
0$
0-
0B
0G
0H
0R
0_
0l
0#"
0/"
0<"
#470000000
1$
1-
1B
1G
1H
1R
1_
1l
1#"
1/"
1<"
#480000000
0$
0-
0B
0G
0H
0R
0_
0l
0#"
0/"
0<"
#490000000
1$
1-
1B
1G
1H
1R
1_
1l
1#"
1/"
1<"
#500000000
0$
0-
0B
0G
0H
0R
0_
0l
0#"
0/"
0<"
#510000000
1$
1-
1B
1G
1H
1R
1_
1l
1#"
1/"
1<"
#520000000
0$
b0000000000000000 (
b0000000000000000 )
0-
0B
0G
0H
b0000000000000000 M
0R
0_
0l
0#"
0/"
0<"
#530000000
1$
1-
1B
1G
1H
1R
b0000000000000000 ]
1_
1l
1#"
1/"
1<"
#540000000
0$
0-
0B
0G
0H
0R
0_
0l
0#"
0/"
0<"
#550000000
1$
1-
1B
1G
1H
1R
1_
1l
1#"
1/"
1<"
#560000000
0$
0-
0B
0G
0H
0R
0_
0l
0#"
0/"
0<"
#570000000
1$
1-
1B
1G
1H
1R
1_
1l
1#"
1/"
1<"
#580000000
0#
0$
0,
0-
0B
0G
0H
0P
0R
0_
0l
0#"
0/"
0<"
#590000000
1$
1-
b0000000000000000 7
1B
1G
1H
1R
b0000000000000000 S
b0000000000000000 ^
1_
b0000000000000000 a
1l
1#"
1/"
1<"
#600000000
0!
1#
0$
0*
1,
0-
1:
1=
0B
0G
0H
0N
1P
0R
1V
1Y
1[
1\
0_
1b
1c
0l
0#"
0/"
0<"
#610000000
1$
1-
b001 1
1>
1?
1B
1G
1H
1R
1_
b001 e
1g
1h
1j
b001 k
1l
1r
1s
1u
1#"
1&"
1'"
1/"
11"
12"
1<"
#620000000
0$
0-
0B
0G
0H
0R
0_
0l
0#"
0/"
0<"
#630000000
1$
b000000000000000X (
b000000000000000X )
1-
b0000000000000001 8
1<
1B
b0000000000000001 C
1D
1G
1H
b000000000000000X M
1R
b0000000000000001 T
1X
1_
1l
b0000000000000001 o
1q
b0000000000000001 }
1!"
1#"
1/"
1<"
#640000000
0$
0-
0B
0G
0H
0R
0_
0l
0#"
0/"
0<"
#650000000
1$
1-
1B
1G
1H
1R
b000000000000000X ]
1_
1l
1#"
1/"
1<"
#660000000
0$
0-
0B
0G
0H
0R
0_
0l
0#"
0/"
0<"
#670000000
1$
1-
1B
1G
1H
1R
1_
1l
1#"
1/"
1<"
#680000000
1!
0$
b0000000000000000 (
b0000000000000000 )
1*
0-
b0000000000000000 8
0:
0=
0>
0?
0B
b0000000000000000 C
0G
0H
b0000000000000000 M
1N
0R
b0000000000000000 T
0V
0Y
0[
0\
0_
0b
0c
0g
0h
0l
b0000000000000000 o
0r
0s
0#"
0&"
0'"
0/"
01"
02"
0<"
#690000000
1$
1-
b000 1
0<
1B
0D
1G
1H
1R
0X
b0000000000000000 ]
1_
b000 e
0j
b000 k
1l
0q
0u
0!"
1#"
1/"
1<"
#700000000
0$
0-
0B
0G
0H
0R
0_
0l
0#"
0/"
0<"
#710000000
1$
1-
1B
1G
1H
1R
1_
1l
1#"
1/"
1<"
#720000000
0$
0-
0B
0G
0H
0R
0_
0l
0#"
0/"
0<"
#730000000
1$
1-
1B
1G
1H
1R
1_
1l
1#"
1/"
1<"
#740000000
0$
0-
0B
0G
0H
0R
0_
0l
0#"
0/"
0<"
#750000000
1$
1-
1B
1G
1H
1R
1_
1l
1#"
1/"
1<"
#760000000
0$
0-
0B
0G
0H
0R
0_
0l
0#"
0/"
0<"
#770000000
1$
1-
1B
1G
1H
1R
1_
1l
1#"
1/"
1<"
#780000000
0$
0-
0B
0G
0H
0R
0_
0l
0#"
0/"
0<"
#790000000
1$
1-
1B
1G
1H
1R
1_
1l
1#"
1/"
1<"
#800000000
0$
0-
0B
0G
0H
0R
0_
0l
0#"
0/"
0<"
#810000000
1$
1-
1B
1G
1H
1R
1_
1l
1#"
1/"
1<"
#820000000
0$
0-
0B
0G
0H
0R
0_
0l
0#"
0/"
0<"
#830000000
1$
1-
1B
1G
1H
1R
1_
1l
1#"
1/"
1<"
#840000000
0$
1&
0-
1/
0B
1E
b0000000000000001 F
0G
0H
0R
0_
0l
b0000000000000001 v
0#"
0/"
17"
18"
0<"
1>"
b111111111111111111111 B"
#850000000
1$
1-
1B
1G
1H
1R
1_
1l
b0000000000000001 x
1#"
1/"
1<"
b111111111111111111111 A"
b111111111111111111110 B"
#860000000
0$
0-
0B
0G
0H
0R
0_
0l
0#"
0/"
0<"
#870000000
1$
1'
1-
10
1B
1G
1H
1R
1_
1l
1w
b0000000000000001 y
b0000000000000001 z
1#"
1/"
1<"
b111111111111111111110 A"
b111111111111111111101 B"
#880000000
0$
0&
0-
0/
0B
0E
b0000000000000000 F
0G
0H
0R
0_
0l
b0000000000000000 v
0#"
0/"
07"
08"
0<"
0>"
b111111111111111111110 B"
#890000000
1$
1-
1B
1G
1H
1R
1_
1l
b0000000000000000 x
1#"
1/"
1<"
#900000000
0$
0-
0B
0G
0H
0R
0_
0l
0#"
0/"
0<"
#910000000
1$
1-
1B
1G
1H
1R
1_
1l
b0000000000000000 y
1#"
1/"
1<"
