hardware/obtr_hdl/tb/center_of_mass_test.vcd
$date
  Tue Nov 17 10:46:52 2015
$end
$version
  GHDL v0
$end
$timescale
  1 fs
$end
$var reg 1 ! clk $end
$var reg 1 " reset $end
$var reg 1 # refresh $end
$var reg 1 $ din_ok $end
$var reg 1 % rez_160x120 $end
$var reg 1 & rez_320x240 $end
$var reg 16 ' pixon[15:0] $end
$var reg 15 ( addr_in[14:0] $end
$var reg 32 ) sum_x_out[31:0] $end
$var reg 32 * sum_y_out[31:0] $end
$var reg 32 + n_out[31:0] $end
$scope module uut $end
$var reg 1 , clk $end
$var reg 1 - reset $end
$var reg 15 . addr_in[14:0] $end
$var reg 1 / refresh $end
$var reg 1 0 rez_160x120 $end
$var reg 1 1 rez_320x240 $end
$var reg 1 2 din_ok $end
$var reg 16 3 pixon[15:0] $end
$var reg 32 4 sum_x_out[31:0] $end
$var reg 32 5 sum_y_out[31:0] $end
$var reg 32 6 n_out[31:0] $end
$var reg 32 7 sum_x[31:0] $end
$var reg 32 8 sum_y[31:0] $end
$var reg 32 9 sum_y_next[31:0] $end
$var reg 32 : sum_x_next[31:0] $end
$var reg 32 ; cnt_n[31:0] $end
$var reg 32 < cnt_n_next[31:0] $end
$var reg 32 = sum_x_reg[31:0] $end
$var reg 32 > sum_x_reg_next[31:0] $end
$var reg 32 ? sum_y_reg[31:0] $end
$var reg 32 @ sum_y_reg_next[31:0] $end
$var reg 32 A n_reg_next[31:0] $end
$var reg 32 B n_reg[31:0] $end
$var reg 16 C pix[15:0] $end
$var reg 16 D pix_next[15:0] $end
$var reg 32 E real_addr[31:0] $end
$var reg 32 F offset_addr[31:0] $end
$var reg 32 G curr_x[31:0] $end
$var reg 32 H curr_y[31:0] $end
$var reg 32 I curr_line[31:0] $end
$var reg 32 J curr_line_next[31:0] $end
$var reg 4 K cnt[3:0] $end
$var reg 4 L cnt_next[3:0] $end
$var reg 6 M offset_cnt[5:0] $end
$var reg 6 N offset_th[5:0] $end
$var reg 1 O line_tick $end
$comment state is not handled $end
$comment state_next is not handled $end
$upscope $end
$enddefinitions $end
#0
0!
1"
0#
0$
U%
U&
b0000000000000000 '
b000000000000000 (
b00000000000000000000000000000000 )
b00000000000000000000000000000000 *
b00000000000000000000000000000000 +
0,
1-
b000000000000000 .
0/
10
01
02
b0000000000000000 3
b00000000000000000000000000000000 4
b00000000000000000000000000000000 5
b00000000000000000000000000000000 6
b00000000000000000000000000000000 7
b00000000000000000000000000000000 8
b00000000000000000000000000000000 9
b00000000000000000000000000000000 :
b00000000000000000000000000000000 ;
b00000000000000000000000000000000 <
b00000000000000000000000000000000 =
b00000000000000000000000000000000 >
b00000000000000000000000000000000 ?
b00000000000000000000000000000000 @
b00000000000000000000000000000000 A
b00000000000000000000000000000000 B
b0000000000000000 C
b0000000000000000 D
b00000000000000000000000000000000 E
b00000000000000000000000000000000 F
b00000000000000000000000000000000 G
b00000000000000000000000000000000 H
b00000000000000000000000000000000 I
b00000000000000000000000000000000 J
b0000 K
b0000 L
b000000 M
b001010 N
UO
#10000000
1!
1,
#20000000
0!
0,
#30000000
1!
0"
1$
b0001011101011000 '
b000000000001100 (
1,
0-
b000000000001100 .
12
b0001011101011000 3
b0001011101011000 D
b00000000000000000000000011000000 E
b00000000000000000000000011000000 F
b00000000000000000000000011000000 H
b000001 M
0O
#40000000
0!
0,
#50000000
1!
0$
1,
02
b0001011101011000 C
b0001011101011000 D
b0001 L
#60000000
0!
0,
#70000000
1!
1,
b00000000000000000000000011000001 E
b00000000000000000000000011000001 H
b0001 K
b0010 L
#80000000
0!
0,
#90000000
1!
1,
b00000000000000000000000011000010 E
b00000000000000000000000011000010 H
b0010 K
b0011 L
#100000000
0!
0,
#110000000
1!
1,
b00000000000000000000000011000011 9
b00000000000000000000000000000001 <
b00000000000000000000000011000011 E
b00000000000000000000000011000011 H
b0011 K
b0100 L
#120000000
0!
0,
#130000000
1!
1,
b00000000000000000000000011000011 8
b00000000000000000000000110000111 9
b00000000000000000000000000000001 ;
b00000000000000000000000000000010 <
b00000000000000000000000011000100 E
b00000000000000000000000011000100 H
b0100 K
b0101 L
#140000000
0!
0,
#150000000
1!
1,
b00000000000000000000000110000111 8
b00000000000000000000000000000010 ;
b00000000000000000000000011000101 E
b00000000000000000000000011000101 H
b0101 K
b0110 L
#160000000
0!
0,
#170000000
1!
1,
b00000000000000000000001001001101 9
b00000000000000000000000000000011 <
b00000000000000000000000011000110 E
b00000000000000000000000011000110 H
b0110 K
b0111 L
#180000000
0!
0,
#190000000
1!
1,
b00000000000000000000001001001101 8
b00000000000000000000000000000011 ;
b00000000000000000000000011000111 E
b00000000000000000000000011000111 H
b0111 K
b1000 L
#200000000
0!
0,
#210000000
1!
1,
b00000000000000000000001100010101 9
b00000000000000000000000000000100 <
b00000000000000000000000011001000 E
b00000000000000000000000011001000 H
b1000 K
b1001 L
#220000000
0!
0,
#230000000
1!
1,
b00000000000000000000001100010101 8
b00000000000000000000001111011110 9
b00000000000000000000000000000100 ;
b00000000000000000000000000000101 <
b00000000000000000000000011001001 E
b00000000000000000000000011001001 H
b1001 K
b1010 L
#240000000
0!
0,
#250000000
1!
1,
b00000000000000000000001111011110 8
b00000000000000000000010010101000 9
b00000000000000000000000000000101 ;
b00000000000000000000000000000110 <
b00000000000000000000000011001010 E
b00000000000000000000000011001010 H
b1010 K
b1011 L
#260000000
0!
0,
#270000000
1!
1,
b00000000000000000000010010101000 8
b00000000000000000000000000000110 ;
b00000000000000000000000011001011 E
b00000000000000000000000011001011 H
b1011 K
b1100 L
#280000000
0!
0,
#290000000
1!
1,
b00000000000000000000010101110100 9
b00000000000000000000000000000111 <
b00000000000000000000000011001100 E
b00000000000000000000000011001100 H
b1100 K
b1101 L
#300000000
0!
0,
#310000000
1!
1,
b00000000000000000000010101110100 8
b00000000000000000000000000000111 ;
b00000000000000000000000011001101 E
b00000000000000000000000011001101 H
b1101 K
b1110 L
#320000000
0!
0,
#330000000
1!
1,
b00000000000000000000000011001110 E
b00000000000000000000000011001110 H
b1110 K
b1111 L
#340000000
0!
0,
#350000000
1!
1,
b00000000000000000000000011001111 E
b00000000000000000000000011001111 H
b1111 K
b0000 L
#360000000
0!
0,
#370000000
1!
1$
b0000000000000010 '
b000000000001101 (
1,
b000000000001101 .
12
b0000000000000010 3
b0000000000000010 D
b00000000000000000000000011010000 E
b00000000000000000000000011010000 F
b00000000000000000000000011010000 H
b0000 K
b000010 M
#380000000
0!
0,
#390000000
1!
0$
1,
02
b0000000000000010 C
b0000000000000010 D
b0001 L
#400000000
0!
0,
#410000000
1!
1,
b00000000000000000000011001000101 9
b00000000000000000000000000001000 <
b00000000000000000000000011010001 E
b00000000000000000000000011010001 H
b0001 K
b0010 L
#420000000
0!
0,
#430000000
1!
1,
b00000000000000000000011001000101 8
b00000000000000000000000000001000 ;
b00000000000000000000000011010010 E
b00000000000000000000000011010010 H
b0010 K
b0011 L
#440000000
0!
0,
#450000000
1!
1,
b00000000000000000000000011010011 E
b00000000000000000000000011010011 H
b0011 K
b0100 L
#460000000
0!
0,
#470000000
1!
1,
b00000000000000000000000011010100 E
b00000000000000000000000011010100 H
b0100 K
b0101 L
#480000000
0!
0,
#490000000
1!
1,
b00000000000000000000000011010101 E
b00000000000000000000000011010101 H
b0101 K
b0110 L
#500000000
0!
0,
#510000000
1!
1,
b00000000000000000000000011010110 E
b00000000000000000000000011010110 H
b0110 K
b0111 L
#520000000
0!
0,
#530000000
1!
1,
b00000000000000000000000011010111 E
b00000000000000000000000011010111 H
b0111 K
b1000 L
#540000000
0!
0,
#550000000
1!
1,
b00000000000000000000000011011000 E
b00000000000000000000000011011000 H
b1000 K
b1001 L
#560000000
0!
0,
#570000000
1!
1,
b00000000000000000000000011011001 E
b00000000000000000000000011011001 H
b1001 K
b1010 L
#580000000
0!
0,
#590000000
1!
1,
b00000000000000000000000011011010 E
b00000000000000000000000011011010 H
b1010 K
b1011 L
#600000000
0!
0,
#610000000
1!
1,
b00000000000000000000000011011011 E
b00000000000000000000000011011011 H
b1011 K
b1100 L
#620000000
0!
0,
#630000000
1!
1,
b00000000000000000000000011011100 E
b00000000000000000000000011011100 H
b1100 K
b1101 L
#640000000
0!
0,
#650000000
1!
1,
b00000000000000000000000011011101 E
b00000000000000000000000011011101 H
b1101 K
b1110 L
#660000000
0!
0,
#670000000
1!
1,
b00000000000000000000000011011110 E
b00000000000000000000000011011110 H
b1110 K
b1111 L
#680000000
0!
0,
#690000000
1!
1,
b00000000000000000000000011011111 E
b00000000000000000000000011011111 H
b1111 K
b0000 L
#700000000
0!
0,
#710000000
1!
1#
1,
1/
b00000000000000000000000000000000 9
b00000000000000000000000000000000 <
b00000000000000000000011001000101 @
b00000000000000000000000000001000 A
b00000000000000000000000011010000 E
b00000000000000000000000011010000 H
b0000 K
b000000 M
#720000000
0!
0,
#730000000
1!
0#
b00000000000000000000011001000101 *
b00000000000000000000000000001000 +
1,
0/
b00000000000000000000011001000101 5
b00000000000000000000000000001000 6
b00000000000000000000000000000000 8
b00000000000000000000000000000000 9
b00000000000000000000000000000000 ;
b00000000000000000000000000000000 <
b00000000000000000000011001000101 ?
b00000000000000000000011001000101 @
b00000000000000000000000000001000 A
b00000000000000000000000000001000 B
