hardware/obtr_hdl/tb/fifo_test.vcd
$date
  Wed Nov 11 16:41:16 2015
$end
$version
  GHDL v0
$end
$timescale
  1 fs
$end
$var reg 1 ! clkw $end
$var reg 1 " clkr $end
$var reg 1 # reset $end
$var reg 1 $ rd $end
$var reg 1 % wr $end
$var reg 1 & empty $end
$var reg 1 ' full $end
$var reg 8 ( wd[7:0] $end
$var reg 8 ) r_d[7:0] $end
$scope module fifo_unit $end
$var reg 1 * clkr $end
$var reg 1 + clkw $end
$var reg 1 , reset $end
$var reg 1 - rd $end
$var reg 1 . wr $end
$var reg 8 / w_data[7:0] $end
$var reg 1 0 empty $end
$var reg 1 1 full $end
$var reg 8 2 r_data[7:0] $end
$var reg 3 3 w_ptr_reg[2:0] $end
$var reg 3 4 w_ptr_next[2:0] $end
$var reg 3 5 w_ptr_succ[2:0] $end
$var reg 3 6 r_ptr_reg[2:0] $end
$var reg 3 7 r_ptr_next[2:0] $end
$var reg 3 8 r_ptr_succ[2:0] $end
$var reg 1 9 full_reg $end
$var reg 1 : full_next $end
$var reg 1 ; empty_reg $end
$var reg 1 < empty_next $end
$var reg 2 = wr_op[1:0] $end
$var reg 1 > wr_en $end
$var reg 1 ? rd_en $end
$scope module ram_unit $end
$var reg 1 @ clka $end
$var reg 1 A clkb $end
$var reg 1 B we $end
$var reg 3 C addr_a[2:0] $end
$var reg 3 D addr_b[2:0] $end
$var reg 8 E din_a[7:0] $end
$var reg 8 F dout_a[7:0] $end
$var reg 8 G dout_b[7:0] $end
$comment ram is not handled $end
$var reg 3 H addr_a_reg[2:0] $end
$var reg 3 I addr_b_reg[2:0] $end
$upscope $end
$upscope $end
$enddefinitions $end
#0
0!
0"
1#
0$
0%
1&
0'
b00000000 (
b11111111 )
0*
0+
1,
0-
0.
b00000000 /
10
01
b11111111 2
b000 3
b000 4
b001 5
b000 6
b000 7
b001 8
09
0:
1;
1<
b00 =
0>
U?
0@
0A
0B
b000 C
b000 D
b00000000 E
b11111111 F
b11111111 G
bUUU H
bUUU I
#10000000
1"
1*
1A
b000 I
#20000000
1!
0"
0#
0*
1+
0,
1@
0A
b000 H
#30000000
1"
1*
1A
#40000000
0!
0"
0*
0+
0@
0A
#50000000
1"
1*
1A
#60000000
1!
0"
1%
b00001010 (
0*
1+
1.
b00001010 /
b001 4
0<
b10 =
1>
1@
0A
1B
b00001010 E
#70000000
1"
0&
1*
00
0;
1A
#80000000
0!
0"
0*
0+
0@
0A
#90000000
1"
1*
1A
#100000000
1!
0"
b11011011 (
b11011011 )
0*
1+
b11011011 /
b11011011 2
b001 3
b010 4
b010 5
1@
0A
b001 C
b11011011 E
b11011011 F
b11011011 G
#110000000
1"
1$
1*
1-
b001 7
b11 =
1A
#120000000
0!
0"
0*
0+
0@
0A
#130000000
1"
0$
1*
0-
b001 6
b010 8
b10 =
1A
b001 D
#140000000
1!
0"
0%
0*
1+
0.
b010 3
b011 5
b00 =
0>
1@
0A
0B
b010 C
b001 H
#150000000
1"
1$
1*
1-
b010 7
1<
b01 =
1A
b001 I
#160000000
0!
0"
0*
0+
0@
0A
#170000000
1"
0$
1&
1*
0-
10
b010 6
b011 8
1;
b00 =
1A
b010 D
#180000000
1!
0"
0*
1+
1@
0A
b11111111 F
b010 H
#190000000
1"
b11111111 )
1*
b11111111 2
1A
b11111111 G
b010 I
