hardware/obtr_hdl/tb/hsvfilter_test.vcd
$date
  Wed Nov 11 17:49:33 2015
$end
$version
  GHDL v0
$end
$timescale
  1 fs
$end
$var reg 1 ! clk $end
$var reg 1 " reset $end
$var reg 1 # start $end
$var reg 1 $ ready $end
$var reg 1 % available $end
$var reg 8 & r[7:0] $end
$var reg 8 ' g[7:0] $end
$var reg 8 ( b[7:0] $end
$var reg 1 ) pixon $end
$scope module uut $end
$var reg 1 * clk $end
$var reg 1 + reset $end
$var reg 8 , r_in[7:0] $end
$var reg 8 - g_in[7:0] $end
$var reg 8 . b_in[7:0] $end
$var reg 1 / start $end
$var reg 1 0 pixon $end
$var reg 1 1 available $end
$var reg 1 2 ready $end
$var reg 9 3 r[8:0] $end
$var reg 9 4 g[8:0] $end
$var reg 9 5 b[8:0] $end
$var reg 9 6 min[8:0] $end
$var reg 9 7 min_next[8:0] $end
$var reg 9 8 v[8:0] $end
$var reg 18 9 ph[17:0] $end
$var reg 18 : ph_next[17:0] $end
$var reg 18 ; subx4[17:0] $end
$var reg 18 < subx4_next[17:0] $end
$var reg 18 = subx64[17:0] $end
$var reg 18 > subx64_next[17:0] $end
$var reg 18 ? ph_th_l[17:0] $end
$var reg 18 @ ph_th_h[17:0] $end
$var reg 9 A s[8:0] $end
$var reg 9 B sub[8:0] $end
$var reg 9 C sub_next[8:0] $end
$var reg 9 D sub1[8:0] $end
$var reg 9 E sub2[8:0] $end
$var reg 9 F adder[8:0] $end
$var reg 1 G mult1_ready $end
$var reg 1 H mult2_ready $end
$var reg 1 I state $end
$var reg 1 J tick $end
$scope module mult1 $end
$var reg 1 K clk $end
$var reg 1 L reset $end
$var reg 1 M start $end
$var reg 9 N a_in[8:0] $end
$var reg 9 O b_in[8:0] $end
$var reg 18 P r[17:0] $end
$var reg 1 Q ready $end
$comment state_reg is not handled $end
$comment state_next is not handled $end
$var reg 9 R a_reg[8:0] $end
$var reg 9 S a_next[8:0] $end
$var reg 4 T n_reg[3:0] $end
$var reg 4 U n_next[3:0] $end
$var reg 19 V p_reg[18:0] $end
$var reg 19 W p_next[18:0] $end
$var reg 10 X pu[9:0] $end
$var reg 10 Y pu_next[9:0] $end
$var reg 10 Z pu_reg[9:0] $end
$var reg 9 [ pl_reg[8:0] $end
$var reg 9 \ ua_in[8:0] $end
$var reg 9 ] ub_in[8:0] $end
$var reg 1 ^ rsign $end
$upscope $end
$scope module mult2 $end
$var reg 1 _ clk $end
$var reg 1 ` reset $end
$var reg 1 a start $end
$var reg 9 b a_in[8:0] $end
$var reg 9 c b_in[8:0] $end
$var reg 18 d r[17:0] $end
$var reg 1 e ready $end
$comment state_reg is not handled $end
$comment state_next is not handled $end
$var reg 9 f a_reg[8:0] $end
$var reg 9 g a_next[8:0] $end
$var reg 4 h n_reg[3:0] $end
$var reg 4 i n_next[3:0] $end
$var reg 19 j p_reg[18:0] $end
$var reg 19 k p_next[18:0] $end
$var reg 10 l pu[9:0] $end
$var reg 10 m pu_next[9:0] $end
$var reg 10 n pu_reg[9:0] $end
$var reg 9 o pl_reg[8:0] $end
$var reg 9 p ua_in[8:0] $end
$var reg 9 q ub_in[8:0] $end
$var reg 1 r rsign $end
$upscope $end
$upscope $end
$enddefinitions $end
#0
0!
1"
0#
1$
0%
b00000000 &
b00000000 '
b00000000 (
0)
0*
1+
b00000000 ,
b00000000 -
b00000000 .
0/
00
01
12
b000000000 3
b000000000 4
b000000000 5
b000000000 6
b000000000 7
b000000000 8
b000000000000000000 9
b000000000000000000 :
b000000000000000000 ;
b000000000000000000 <
b000000000000000000 =
b000000000000000000 >
b000000000000000000 ?
b000000000000000000 @
b000000000 A
b000000000 B
b000000000 C
b110001100 D
b110011010 E
b001111000 F
1G
1H
0I
0J
0K
1L
0M
b110001100 N
b000000000 O
b000000000000000000 P
1Q
b000000000 R
b000000000 S
b0000 T
b0000 U
b0000000000000000000 V
b0000000000000000000 W
b0000000000 X
b0000000000 Y
b0000000000 Z
b000000000 [
b001110100 \
b000000000 ]
1^
0_
1`
0a
b110011010 b
b000000000 c
b000000000000000000 d
1e
b000000000 f
b000000000 g
b0000 h
b0000 i
b0000000000000000000 j
b0000000000000000000 k
b0000000000 l
b0000000000 m
b0000000000 n
b000000000 o
b001100110 p
b000000000 q
1r
#10000000
1!
1*
1K
1_
#20000000
0!
0*
0K
0_
#30000000
1!
0"
1#
1%
b01011110 &
b01110010 '
b01001110 (
1)
1*
0+
b01011110 ,
b01110010 -
b01001110 .
1/
10
11
b001011110 3
b001110010 4
b001001110 5
b001001110 7
b001110010 8
b001110010 A
b111110000 C
b110001100 D
b110011010 E
b001111000 F
1I
1J
1K
0L
1M
b110001100 N
b001110010 O
1Q
b001110100 S
b1001 U
b0000000000001110010 W
b001110100 \
b001110010 ]
1^
1_
0`
1a
b110011010 b
b001110010 c
1e
b001100110 g
b1001 i
b0000000000001110010 k
b001100110 p
b001110010 q
1r
#40000000
0!
0*
0K
0_
#50000000
1!
0#
0$
0%
0)
1*
0/
00
01
02
b001001110 6
b111111111111000000 <
b111111110000000000 >
b111111111110001110 ?
b111111111110001110 @
b000100100 A
b111110000 B
0G
0H
0I
0J
1K
0M
b000100100 O
b111111111110001110 P
0Q
b001110100 R
b001110100 S
b1001 T
b1000 U
b0000000000001110010 V
b0000000000000111001 W
b001110010 [
b000100100 ]
1_
0a
b000100100 c
b111111111110001110 d
0e
b001100110 f
b001100110 g
b1001 h
b1000 i
b0000000000001110010 j
b0000000000000111001 k
b001110010 o
b000100100 q
#60000000
0!
0*
0K
0_
#70000000
1!
1*
b111111110001000000 :
b111111111111000000 ;
b111111110000000000 =
b111111111111000111 ?
b111111111111000111 @
1K
b111111111111000111 P
b1000 T
b0111 U
b0000000000000111001 V
b0000111010000011100 W
b0001110100 Y
b000111001 [
1_
b111111111111000111 d
b1000 h
b0111 i
b0000000000000111001 j
b0000110011000011100 k
b0001100110 m
b000111001 o
#80000000
0!
0*
0K
0_
#90000000
1!
1*
b111111110001000000 9
b111000101111100100 ?
b111001100111100100 @
1K
b111000101111100100 P
b0111 T
b0110 U
b0000111010000011100 V
b0000011101000001110 W
b0001110100 X
b0000111010 Y
b0000111010 Z
b000011100 [
1_
b111001100111100100 d
b0111 h
b0110 i
b0000110011000011100 j
b0000011001100001110 k
b0001100110 l
b0000110011 m
b0000110011 n
b000011100 o
#100000000
0!
0*
0K
0_
#110000000
1!
1*
b111100010111110010 ?
b111100110011110010 @
1K
b111100010111110010 P
b0110 T
b0101 U
b0000011101000001110 V
b0000001110100000111 W
b0000111010 X
b0000011101 Y
b0000011101 Z
b000001110 [
1_
b111100110011110010 d
b0110 h
b0101 i
b0000011001100001110 j
b0000001100110000111 k
b0000110011 l
b0000011001 m
b0000011001 n
b100001110 o
#120000000
0!
0*
0K
0_
#130000000
1!
1*
b111110001011111001 ?
b111110011001111001 @
1K
b111110001011111001 P
b0101 T
b0100 U
b0000001110100000111 V
b0001000001010000011 W
b0000011101 X
b0010000010 Y
b0000001110 Z
b100000111 [
1_
b111110011001111001 d
b0101 h
b0100 i
b0000001100110000111 j
b0000111001011000011 k
b0000011001 l
b0001110010 m
b0000001100 n
b110000111 o
#140000000
0!
0*
0K
0_
#150000000
1!
1*
b110111110101111101 ?
b111000110100111101 @
1K
b110111110101111101 P
b0100 T
b0011 U
b0001000001010000011 V
b0001011010101000001 W
b0010000010 X
b0010110101 Y
b0001000001 Z
b010000011 [
1_
b111000110100111101 d
b0100 h
b0011 i
b0000111001011000011 j
b0001001111101100001 k
b0001110010 l
b0010011111 m
b0000111001 n
b011000011 o
#160000000
0!
0*
0K
0_
#170000000
1!
1*
b110100101010111111 ?
b110110000010011111 @
1K
b110100101010111111 P
b0011 T
b0010 U
b0001011010101000001 V
b0001100111010100000 W
b0010110101 X
b0011001110 Y
b0001011010 Z
b101000001 [
1_
b110110000010011111 d
b0011 h
b0010 i
b0001001111101100001 j
b0001011010110110000 k
b0010011111 l
b0010110101 m
b0001001111 n
b101100001 o
#180000000
0!
0*
0K
0_
#190000000
1!
1*
b110011000101100000 ?
b110100101001010000 @
1K
b110011000101100000 P
b0010 T
b0001 U
b0001100111010100000 V
b0000110011101010000 W
b0011001110 X
b0001100111 Y
b0001100111 Z
b010100000 [
1_
b110100101001010000 d
b0010 h
b0001 i
b0001011010110110000 j
b0000101101011011000 k
b0010110101 l
b0001011010 m
b0001011010 n
b110110000 o
#200000000
0!
0*
0K
0_
#210000000
1!
1*
b111001100010110000 ?
b111010010100101000 @
1K
b111001100010110000 P
b0001 T
b0000 U
b0000110011101010000 V
b0000011001110101000 W
b0001100111 X
b0000110011 Y
b0000110011 Z
b101010000 [
1_
b111010010100101000 d
b0001 h
b0000 i
b0000101101011011000 j
b0000010110101101100 k
b0001011010 l
b0000101101 m
b0000101101 n
b011011000 o
#220000000
0!
0*
0K
0_
#230000000
1!
1$
1*
12
b111100110001011000 ?
b111101001010010100 @
1G
1H
1K
b111100110001011000 P
1Q
b0000 T
b0000011001110101000 V
b0000110011 X
b0000011001 Z
b110101000 [
1_
b111101001010010100 d
1e
b0000 h
b0000010110101101100 j
b0000101101 l
b0000010110 n
b101101100 o
#240000000
0!
0*
0K
0_
#250000000
1!
1%
1*
11
1I
1J
1K
1_
#260000000
0!
0*
0K
0_
#270000000
1!
0%
1*
01
0J
1K
1_
