hardware/obtr_hdl/tb/hsvfilter_test.vcd
$date
  Fri Nov  6 15:40:44 2015
$end
$version
  GHDL v0
$end
$timescale
  1 fs
$end
$var reg 1 ! clk $end
$var reg 1 " reset $end
$var reg 1 # start $end
$var reg 1 $ ready $end
$var reg 8 % r[7:0] $end
$var reg 8 & g[7:0] $end
$var reg 8 ' b[7:0] $end
$var reg 8 ( pixon[7:0] $end
$scope module uut $end
$var reg 1 ) clk $end
$var reg 1 * reset $end
$var reg 8 + r_in[7:0] $end
$var reg 8 , g_in[7:0] $end
$var reg 8 - b_in[7:0] $end
$var reg 1 . start $end
$var reg 8 / pixon[7:0] $end
$var reg 1 0 ready $end
$var reg 9 1 r[8:0] $end
$var reg 9 2 g[8:0] $end
$var reg 9 3 b[8:0] $end
$var reg 9 4 min[8:0] $end
$var reg 9 5 v[8:0] $end
$var reg 18 6 ph[17:0] $end
$var reg 18 7 subx4[17:0] $end
$var reg 18 8 subx64[17:0] $end
$var reg 18 9 subx[17:0] $end
$var reg 18 : ph_th_l[17:0] $end
$var reg 18 ; ph_th_h[17:0] $end
$var reg 9 < s[8:0] $end
$var reg 9 = sub[8:0] $end
$var reg 9 > sub1[8:0] $end
$var reg 9 ? sub2[8:0] $end
$var reg 9 @ adder[8:0] $end
$var reg 1 A mult1_ready $end
$var reg 1 B mult2_ready $end
$var reg 1 C state $end
$var reg 1 D tick $end
$scope module mult1 $end
$var reg 1 E clk $end
$var reg 1 F reset $end
$var reg 1 G start $end
$var reg 9 H a_in[8:0] $end
$var reg 9 I b_in[8:0] $end
$var reg 18 J r[17:0] $end
$var reg 1 K ready $end
$comment state_reg is not handled $end
$comment state_next is not handled $end
$var reg 9 L a_reg[8:0] $end
$var reg 9 M a_next[8:0] $end
$var reg 4 N n_reg[3:0] $end
$var reg 4 O n_next[3:0] $end
$var reg 19 P p_reg[18:0] $end
$var reg 19 Q p_next[18:0] $end
$var reg 10 R pu_next[9:0] $end
$var reg 10 S pu_reg[9:0] $end
$var reg 9 T pl_reg[8:0] $end
$var reg 9 U ua_in[8:0] $end
$var reg 9 V ub_in[8:0] $end
$var reg 1 W rsign $end
$upscope $end
$scope module mult2 $end
$var reg 1 X clk $end
$var reg 1 Y reset $end
$var reg 1 Z start $end
$var reg 9 [ a_in[8:0] $end
$var reg 9 \ b_in[8:0] $end
$var reg 18 ] r[17:0] $end
$var reg 1 ^ ready $end
$comment state_reg is not handled $end
$comment state_next is not handled $end
$var reg 9 _ a_reg[8:0] $end
$var reg 9 ` a_next[8:0] $end
$var reg 4 a n_reg[3:0] $end
$var reg 4 b n_next[3:0] $end
$var reg 19 c p_reg[18:0] $end
$var reg 19 d p_next[18:0] $end
$var reg 10 e pu_next[9:0] $end
$var reg 10 f pu_reg[9:0] $end
$var reg 9 g pl_reg[8:0] $end
$var reg 9 h ua_in[8:0] $end
$var reg 9 i ub_in[8:0] $end
$var reg 1 j rsign $end
$upscope $end
$upscope $end
$enddefinitions $end
#0
0!
1"
0#
0$
b00000000 %
b00000000 &
b00000000 '
b00000000 (
0)
1*
b00000000 +
b00000000 ,
b00000000 -
0.
b00000000 /
00
b000000000 1
b000000000 2
b000000000 3
b000000000 4
b000000000 5
b000000000000000000 6
b000000000000000000 7
b000000000000000000 8
bUUUUUUUUUUUUUUUUUU 9
b000000000000000000 :
b000000000000000000 ;
b000000000 <
b000000000 =
b111000100 >
b000111100 ?
b001111000 @
0A
0B
0C
0D
0E
1F
0G
b111000100 H
b000000000 I
b000000000000000000 J
0K
b000000000 L
b000000000 M
b0000 N
b0000 O
b0000000000000000000 P
b0000000000000000000 Q
bUUUUUUUUUU R
b0000000000 S
b000000000 T
b000111100 U
b000000000 V
1W
0X
1Y
0Z
b000111100 [
b000000000 \
b000000000000000000 ]
0^
b000000000 _
b000000000 `
b0000 a
b0000 b
b0000000000000000000 c
b0000000000000000000 d
bUUUUUUUUUU e
b0000000000 f
b000000000 g
b000111100 h
b000000000 i
0j
#10000000
1!
1)
1E
1X
#20000000
0!
0)
0E
0X
#30000000
1!
0"
1#
b01011110 %
b01110010 &
b01001110 '
b00000000 (
1)
0*
b01011110 +
b01110010 ,
b01001110 -
1.
b00000000 /
b001011110 1
b001110010 2
b001001110 3
b001001110 4
b001110010 5
b111111110001000000 6
b111111111111000000 7
b111111110000000000 8
b000100100 <
b111110000 =
b111000100 >
b000111100 ?
b001111000 @
1E
0F
1G
b111000100 H
b000100100 I
b000111100 M
b1001 O
b0000000000000100100 Q
b0000000000 R
b000100100 V
1W
1X
0Y
1Z
b000111100 [
b000100100 \
b000111100 `
b1001 b
b0000000000000100100 d
b0000000000 e
b000111100 h
b000100100 i
#40000000
0!
0)
0E
0X
#50000000
1!
0#
1)
0.
b111111111111011100 :
b000000000000100100 ;
0A
0B
1E
0G
b111111111111011100 J
0K
b000111100 L
b000111100 M
b1001 N
b1000 O
b0000000000000100100 P
b0000000000000010010 Q
b000100100 T
1X
0Z
b000000000000100100 ]
0^
b000111100 _
b000111100 `
b1001 a
b1000 b
b0000000000000100100 c
b0000000000000010010 d
b000100100 g
#60000000
0!
0)
0E
0X
#70000000
1!
1)
b111111111111101110 :
b000000000000010010 ;
1E
b111111111111101110 J
b1000 N
b0111 O
b0000000000000010010 P
b0000000000000001001 Q
b000010010 T
1X
b000000000000010010 ]
b1000 a
b0111 b
b0000000000000010010 c
b0000000000000001001 d
b000010010 g
#80000000
0!
0)
0E
0X
#90000000
1!
1)
b111111111111110111 :
b000000000000001001 ;
1E
b111111111111110111 J
b0111 N
b0110 O
b0000000000000001001 P
b0000011110000000100 Q
b0000111100 R
b000001001 T
1X
b000000000000001001 ]
b0111 a
b0110 b
b0000000000000001001 c
b0000011110000000100 d
b0000111100 e
b000001001 g
#100000000
0!
0)
0E
0X
#110000000
1!
b11111111 (
1)
b11111111 /
b111100001111111100 :
b000011110000000100 ;
1E
b111100001111111100 J
b0110 N
b0101 O
b0000011110000000100 P
b0000001111000000010 Q
b0000011110 R
b0000011110 S
b000000100 T
1X
b000011110000000100 ]
b0110 a
b0101 b
b0000011110000000100 c
b0000001111000000010 d
b0000011110 e
b0000011110 f
b000000100 g
#120000000
0!
0)
0E
0X
#130000000
1!
1)
b111110000111111110 :
b000001111000000010 ;
1E
b111110000111111110 J
b0101 N
b0100 O
b0000001111000000010 P
b0000000111100000001 Q
b0000001111 R
b0000001111 S
b000000010 T
1X
b000001111000000010 ]
b0101 a
b0100 b
b0000001111000000010 c
b0000000111100000001 d
b0000001111 e
b0000001111 f
b000000010 g
#140000000
0!
0)
0E
0X
#150000000
1!
1)
b111111000011111111 :
b000000111100000001 ;
1E
b111111000011111111 J
b0100 N
b0011 O
b0000000111100000001 P
b0000100001110000000 Q
b0001000011 R
b0000000111 S
b100000001 T
1X
b000000111100000001 ]
b0100 a
b0011 b
b0000000111100000001 c
b0000100001110000000 d
b0001000011 e
b0000000111 f
b100000001 g
#160000000
0!
0)
0E
0X
#170000000
1!
1)
b111011110010000000 :
b000100001110000000 ;
1E
b111011110010000000 J
b0011 N
b0010 O
b0000100001110000000 P
b0000010000111000000 Q
b0000100001 R
b0000100001 S
b110000000 T
1X
b000100001110000000 ]
b0011 a
b0010 b
b0000100001110000000 c
b0000010000111000000 d
b0000100001 e
b0000100001 f
b110000000 g
#180000000
0!
0)
0E
0X
#190000000
1!
1)
b111101111001000000 :
b000010000111000000 ;
1E
b111101111001000000 J
b0010 N
b0001 O
b0000010000111000000 P
b0000001000011100000 Q
b0000010000 R
b0000010000 S
b111000000 T
1X
b000010000111000000 ]
b0010 a
b0001 b
b0000010000111000000 c
b0000001000011100000 d
b0000010000 e
b0000010000 f
b111000000 g
#200000000
0!
0)
0E
0X
#210000000
1!
1)
b111110111100100000 :
b000001000011100000 ;
1A
1B
1E
b111110111100100000 J
1K
b0001 N
b0000 O
b0000001000011100000 P
b0000000100001110000 Q
b0000001000 R
b0000001000 S
b011100000 T
1X
b000001000011100000 ]
1^
b0001 a
b0000 b
b0000001000011100000 c
b0000000100001110000 d
b0000001000 e
b0000001000 f
b011100000 g
#220000000
0!
0)
0E
0X
#230000000
1!
1$
1)
10
b111111011110010000 :
b000000100001110000 ;
0A
0B
0C
1D
1E
b111111011110010000 J
0K
b0000 N
b0000000100001110000 P
b0000000100 S
b001110000 T
1X
b000000100001110000 ]
0^
b0000 a
b0000000100001110000 c
b0000000100 f
b001110000 g
#240000000
0!
0)
0E
0X
#250000000
1!
0$
1)
00
0D
1E
1X
