hardware/obtr_hdl/tb/mult_test.vcd
$date
  Thu Nov  5 17:41:10 2015
$end
$version
  GHDL v0
$end
$timescale
  1 fs
$end
$var reg 1 ! clk $end
$var reg 1 " reset $end
$var reg 1 # start $end
$var reg 1 $ ready $end
$var reg 9 % a_in[8:0] $end
$var reg 9 & b_in[8:0] $end
$var reg 18 ' r[17:0] $end
$scope module uut $end
$var reg 1 ( clk $end
$var reg 1 ) reset $end
$var reg 1 * start $end
$var reg 9 + a_in[8:0] $end
$var reg 9 , b_in[8:0] $end
$var reg 18 - r[17:0] $end
$var reg 1 . ready $end
$comment state_reg is not handled $end
$comment state_next is not handled $end
$var reg 9 / a_reg[8:0] $end
$var reg 9 0 a_next[8:0] $end
$var reg 4 1 n_reg[3:0] $end
$var reg 4 2 n_next[3:0] $end
$var reg 19 3 p_reg[18:0] $end
$var reg 19 4 p_next[18:0] $end
$var reg 10 5 pu_next[9:0] $end
$var reg 10 6 pu_reg[9:0] $end
$var reg 9 7 pl_reg[8:0] $end
$var reg 9 8 ua_in[8:0] $end
$var reg 9 9 ub_in[8:0] $end
$var reg 1 : rsign $end
$upscope $end
$enddefinitions $end
#0
0!
1"
0#
1$
b000000000 %
b000000000 &
b000000000000000000 '
0(
1)
0*
b000000000 +
b000000000 ,
b000000000000000000 -
1.
b000000000 /
b000000000 0
b0000 1
b0000 2
b0000000000000000000 3
b0000000000000000000 4
bUUUUUUUUUU 5
b0000000000 6
b000000000 7
b000000000 8
b000000000 9
0:
#10000000
1!
1(
#20000000
0!
0(
#30000000
1!
0"
1#
b111111011 %
b111111011 &
1(
0)
1*
b111111011 +
b111111011 ,
1.
b000000101 0
b1001 2
b0000000000000000101 4
b0000000000 5
b000000101 8
b000000101 9
#40000000
0!
0(
#50000000
1!
0#
0$
b000000000000000101 '
1(
0*
b000000000000000101 -
0.
b000000101 /
b000000101 0
b1001 1
b1000 2
b0000000000000000101 3
b0000000010100000010 4
b0000000101 5
b000000101 7
#60000000
0!
0(
#70000000
1!
b000000010100000010 '
1(
b000000010100000010 -
b1000 1
b0111 2
b0000000010100000010 3
b0000000001010000001 4
b0000000010 5
b0000000010 6
b100000010 7
#80000000
0!
0(
#90000000
1!
b000000001010000001 '
1(
b000000001010000001 -
b0111 1
b0110 2
b0000000001010000001 3
b0000000011001000000 4
b0000000110 5
b0000000001 6
b010000001 7
#100000000
0!
0(
#110000000
1!
b000000011001000000 '
1(
b000000011001000000 -
b0110 1
b0101 2
b0000000011001000000 3
b0000000001100100000 4
b0000000011 5
b0000000011 6
b001000000 7
#120000000
0!
0(
#130000000
1!
b000000001100100000 '
1(
b000000001100100000 -
b0101 1
b0100 2
b0000000001100100000 3
b0000000000110010000 4
b0000000001 5
b0000000001 6
b100100000 7
#140000000
0!
0(
#150000000
1!
b000000000110010000 '
1(
b000000000110010000 -
b0100 1
b0011 2
b0000000000110010000 3
b0000000000011001000 4
b0000000000 5
b0000000000 6
b110010000 7
#160000000
0!
0(
#170000000
1!
b000000000011001000 '
1(
b000000000011001000 -
b0011 1
b0010 2
b0000000000011001000 3
b0000000000001100100 4
b011001000 7
#180000000
0!
0(
#190000000
1!
b000000000001100100 '
1(
b000000000001100100 -
b0010 1
b0001 2
b0000000000001100100 3
b0000000000000110010 4
b001100100 7
#200000000
0!
0(
#210000000
1!
b000000000000110010 '
1(
b000000000000110010 -
b0001 1
b0000 2
b0000000000000110010 3
b0000000000000011001 4
b000110010 7
#220000000
0!
0(
#230000000
1!
1$
b000000000000011001 '
1(
b000000000000011001 -
1.
b0000 1
b0000000000000011001 3
b000011001 7
