hardware/obtr_hdl/tb/test.vcd
$date
  Fri Oct 23 13:13:08 2015
$end
$version
  GHDL v0
$end
$timescale
  1 fs
$end
$var reg 1 ! imx_cs_n $end
$var reg 1 " imx_rw $end
$var reg 1 # imx_adv $end
$var reg 1 $ clk $end
$var reg 1 % reset $end
$var reg 1 & button $end
$var reg 1 ' irq $end
$var reg 16 ( imx_da[15:0] $end
$scope module uut $end
$var reg 16 ) imx_da[15:0] $end
$var reg 1 * imx_cs_n $end
$var reg 1 + imx_rw $end
$var reg 1 , imx_adv $end
$var reg 1 - ext_clk $end
$var reg 1 . button $end
$var reg 1 / gls_irq $end
$var reg 3 0 c_sel[2:0] $end
$var reg 1 1 adv $end
$var reg 16 2 wbm_address[15:0] $end
$var reg 16 3 wbm_readdata[15:0] $end
$var reg 16 4 wbm_writedata[15:0] $end
$var reg 1 5 wbm_strobe $end
$var reg 1 6 wbm_write $end
$var reg 1 7 wbm_ack $end
$var reg 1 8 wbm_cycle $end
$var reg 1 9 strobe $end
$var reg 1 : cycle $end
$var reg 1 ; wr $end
$var reg 1 < gls_reset $end
$var reg 1 = gls_clk $end
$var reg 16 > irq_dout[15:0] $end
$var reg 16 ? buffer_dout[15:0] $end
$var reg 16 @ cnt_dout[15:0] $end
$var reg 1 A irq_ack $end
$var reg 1 B bt_irq $end
$var reg 1 C cnt_ack $end
$var reg 16 D irq_port[15:0] $end
$var reg 1 E buffer_ack $end
$var reg 1 F ack_tick $end
$scope module debounce_unit $end
$var reg 1 G clk $end
$var reg 1 H reset $end
$var reg 1 I sw $end
$var reg 1 J db_level $end
$var reg 1 K db_tick $end
$comment state_reg is not handled $end
$comment state_next is not handled $end
$var reg 21 L q_reg[20:0] $end
$var reg 21 M q_next[20:0] $end
$upscope $end
$scope module reset_gen $end
$var reg 1 N ext_clk $end
$var reg 1 O gls_clk $end
$var reg 1 P gls_reset $end
$var reg 1 Q dly $end
$var reg 1 R rst $end
$var reg 1 S ext_reset $end
$upscope $end
$scope module imx51_wb_16 $end
$var reg 16 T imx_da[15:0] $end
$var reg 1 U imx_cs_n $end
$var reg 1 V imx_rw $end
$var reg 1 W imx_adv $end
$var reg 1 X gls_reset $end
$var reg 1 Y gls_clk $end
$var reg 16 Z wbm_address[15:0] $end
$var reg 16 [ wbm_readdata[15:0] $end
$var reg 16 \ wbm_writedata[15:0] $end
$var reg 1 ] wbm_strobe $end
$var reg 1 ^ wbm_write $end
$var reg 1 _ wbm_ack $end
$var reg 1 ` wbm_cycle $end
$var reg 1 a write $end
$var reg 1 b read $end
$var reg 1 c strobe $end
$var reg 16 d writedata[15:0] $end
$var reg 16 e address[15:0] $end
$upscope $end
$scope module interface $end
$var reg 1 f clk $end
$var reg 1 g reset $end
$var reg 16 h addr_in[15:0] $end
$var reg 1 i strobe_in $end
$var reg 1 j cycle_in $end
$var reg 1 k wr_in $end
$var reg 3 l c_sel[2:0] $end
$var reg 1 m adv $end
$var reg 1 n strobe_out $end
$var reg 1 o cycle_out $end
$var reg 1 p wr_out $end
$var reg 1 q slave_active $end
$var reg 3 r slave_sel[2:0] $end
$upscope $end
$scope module irq_manager $end
$var reg 1 s gls_clk $end
$var reg 1 t gls_reset $end
$var reg 2 u wbs_s1_address[1:0] $end
$var reg 16 v wbs_s1_readdata[15:0] $end
$var reg 16 w wbs_s1_writedata[15:0] $end
$var reg 1 x wbs_s1_ack $end
$var reg 1 y wbs_s1_strobe $end
$var reg 1 z wbs_s1_cycle $end
$var reg 1 { wbs_s1_write $end
$var reg 1 | irq_cs $end
$var reg 16 } irqport[15:0] $end
$var reg 1 !" gls_irq $end
$var reg 16 "" irq_r[15:0] $end
$var reg 16 #" irq_old[15:0] $end
$var reg 16 $" irq_pend[15:0] $end
$var reg 16 %" irq_ack[15:0] $end
$var reg 16 &" irq_mask[15:0] $end
$var reg 16 '" readdata[15:0] $end
$var reg 1 (" rd_ack $end
$var reg 1 )" wr_ack $end
$upscope $end
$scope module buffer_ent $end
$var reg 1 *" clk $end
$var reg 1 +" reset $end
$var reg 16 ," din[15:0] $end
$var reg 16 -" addr[15:0] $end
$var reg 1 ." strobe $end
$var reg 1 /" cycle $end
$var reg 1 0" c_sel $end
$var reg 1 1" ack $end
$var reg 1 2" ack_tick $end
$var reg 1 3" wr $end
$var reg 16 4" dout[15:0] $end
$var reg 16 5" mem_addr[15:0] $end
$var reg 1 6" wr_op $end
$var reg 1 7" ack_db $end
$var reg 1 8" state $end
$scope module mem_ent $end
$var reg 1 9" clka $end
$var reg 1 :" clkb $end
$var reg 1 ;" we $end
$var reg 8 <" addr_a[7:0] $end
$var reg 8 =" addr_b[7:0] $end
$var reg 16 >" din_a[15:0] $end
$var reg 16 ?" dout_a[15:0] $end
$var reg 16 @" dout_b[15:0] $end
$comment ram is not handled $end
$var reg 8 A" addr_a_reg[7:0] $end
$var reg 8 B" addr_b_reg[7:0] $end
$upscope $end
$upscope $end
$scope module rw_cnt_ent $end
$var reg 1 C" clk $end
$var reg 1 D" reset $end
$var reg 2 E" addr[1:0] $end
$var reg 1 F" strobe $end
$var reg 1 G" c_sel $end
$var reg 1 H" m_ack $end
$var reg 1 I" cycle $end
$var reg 1 J" wr $end
$var reg 16 K" dout[15:0] $end
$var reg 1 L" ack $end
$var reg 16 M" w_counter[15:0] $end
$var reg 16 N" r_counter[15:0] $end
$upscope $end
$upscope $end
$enddefinitions $end
#0
1!
1"
1#
0$
1%
0&
1'
b0000000000000000 (
b0000000000000000 )
1*
1+
1,
0-
0.
1/
bUUU 0
U1
bUUUUUUUUUUUUUUUU 2
b0000000000000000 3
b0000000000000000 4
05
06
U7
08
09
0:
0;
0<
0=
b0000000000000000 >
b1111111111111111 ?
bUUUUUUUUUUUUUUUU @
UA
0B
0C
b0000000000000000 D
0E
0F
0G
0H
0I
0J
0K
bUUUUUUUUUUUUUUUUUUUUU L
bUUUUUUUUUUUUUUUUUUUUU M
0N
0O
0P
0Q
0R
0S
b0000000000000000 T
1U
1V
1W
0X
0Y
bUUUUUUUUUUUUUUUU Z
b0000000000000000 [
b0000000000000000 \
0]
0^
U_
0`
0a
0b
0c
bUUUUUUUUUUUUUUUU d
bUUUUUUUUUUUUUUUU e
0f
0g
bUUUUUUUUUUUUUUUU h
0i
0j
0k
bUUU l
Um
0n
0o
0p
Uq
bUUU r
0s
0t
bUU u
b0000000000000000 v
b0000000000000000 w
Ux
0y
0z
0{
U|
b0000000000000000 }
1!"
bUUUUUUUUUUUUUUUU ""
bUUUUUUUUUUUUUUUU #"
bUUUUUUUUUUUUUUUU $"
bUUUUUUUUUUUUUUUU %"
bUUUUUUUUUUUUUUUU &"
bUUUUUUUUUUUUUUUU '"
U("
U)"
0*"
0+"
b0000000000000000 ,"
bUUUUUUUUUUUUUUUU -"
0."
0/"
U0"
01"
02"
03"
b1111111111111111 4"
b0000000000000000 5"
06"
07"
08"
09"
0:"
0;"
b00000000 <"
b00000000 ="
b0000000000000000 >"
b1111111111111111 ?"
b1111111111111111 @"
bUUUUUUUU A"
bUUUUUUUU B"
0C"
0D"
bUU E"
0F"
UG"
0H"
0I"
0J"
bUUUUUUUUUUUUUUUU K"
0L"
bUUUUUUUUUUUUUUUU M"
bUUUUUUUUUUUUUUUU N"
#10000000
1$
0'
1-
0/
b000 0
01
b0000000000000000 2
07
1<
1=
b0000000000000000 @
0A
1G
1H
b000000000000000000000 L
b000000000000000000000 M
1N
1O
1P
1R
1X
1Y
b0000000000000000 Z
0_
b0000000000000000 d
b0000000000000000 e
1f
1g
b0000000000000000 h
b000 l
0m
0q
b000 r
1s
1t
b00 u
0x
0|
0!"
b0000000000000000 ""
b0000000000000000 #"
b0000000000000000 $"
b0000000000000000 %"
b0000000000000000 &"
b0000000000000000 '"
0("
0)"
1*"
1+"
b0000000000000000 -"
00"
19"
1:"
b00000000 A"
b00000000 B"
1C"
1D"
b00 E"
0G"
b0000000000000000 K"
b0000000000000000 M"
b0000000000000000 N"
#20000000
0$
0%
0-
0=
0G
0N
0O
0Y
0f
0s
0*"
09"
0:"
0C"
#30000000
1$
1-
0<
1=
1G
0H
1N
1O
0P
1Q
0R
0X
1Y
1f
0g
1s
0t
1*"
0+"
19"
1:"
1C"
0D"
#40000000
0$
0-
0=
0G
0N
0O
0Y
0f
0s
0*"
09"
0:"
0C"
#50000000
1$
1-
1=
1G
1N
1O
1Y
1f
1s
1*"
19"
1:"
1C"
#60000000
0#
0$
b0000000000001000 (
b0000000000001000 )
0,
0-
0=
0G
0N
0O
b0000000000001000 T
0W
0Y
0f
0s
0*"
09"
0:"
0C"
#70000000
1$
1-
b0000000000001000 2
1=
1G
1N
1O
1Y
b0000000000001000 Z
b0000000000001000 e
1f
b0000000000001000 h
1s
1*"
b0000000000001000 -"
19"
1:"
1C"
#80000000
0!
0"
1#
0$
b0001001000110100 (
b0001001000110100 )
0*
0+
1,
0-
15
16
18
0=
0G
0N
0O
b0001001000110100 T
0U
0V
1W
0Y
1]
1^
1`
1a
1c
0f
1i
1j
1k
0s
0*"
09"
0:"
0C"
#90000000
1$
1-
b010 0
b1111111111111111 3
b0001001000110100 4
17
19
1:
1;
1=
1E
1G
1N
1O
1Y
b1111111111111111 [
b0001001000110100 \
1_
b0001001000110100 d
1f
b010 l
1n
1o
1p
1q
b010 r
1s
b0001001000110100 w
1y
1z
1{
1*"
b0001001000110100 ,"
1."
1/"
10"
11"
13"
16"
19"
1:"
1;"
b0001001000110100 >"
1C"
1F"
1I"
1J"
#100000000
0$
0-
0=
0G
0N
0O
0Y
0f
0s
0*"
09"
0:"
0C"
#110000000
1$
1-
b0001001000110100 3
1=
b0001001000110100 ?
1F
1G
1N
1O
1Y
b0001001000110100 [
1f
1s
1*"
12"
b0001001000110100 4"
17"
18"
19"
1:"
b0001001000110100 ?"
b0001001000110100 @"
1C"
1H"
#120000000
0$
0-
0=
0G
0N
0O
0Y
0f
0s
0*"
09"
0:"
0C"
#130000000
1$
1-
1=
0F
1G
1N
1O
1Y
1f
1s
1*"
02"
07"
19"
1:"
1C"
0H"
b0000000000000001 M"
#140000000
0$
0-
0=
0G
0N
0O
0Y
0f
0s
0*"
09"
0:"
0C"
#150000000
1$
1-
1=
1G
1N
1O
1Y
1f
1s
1*"
19"
1:"
1C"
#160000000
1!
0$
1*
0-
b0000000000000000 3
b0000000000000000 4
05
06
07
08
09
0:
0;
0=
0E
0G
0N
0O
1U
0Y
b0000000000000000 [
b0000000000000000 \
0]
0^
0_
0`
0a
0c
0f
0i
0j
0k
0n
0o
0p
0s
b0000000000000000 w
0y
0z
0{
0*"
b0000000000000000 ,"
0."
0/"
01"
03"
06"
08"
09"
0:"
0;"
b0000000000000000 >"
0C"
0F"
0I"
0J"
#170000000
1$
1-
b000 0
1=
1G
1N
1O
1Y
1f
b000 l
0q
b000 r
1s
1*"
00"
19"
1:"
1C"
#180000000
0$
0-
0=
0G
0N
0O
0Y
0f
0s
0*"
09"
0:"
0C"
#190000000
1$
1-
1=
1G
1N
1O
1Y
1f
1s
1*"
19"
1:"
1C"
#200000000
0$
0-
0=
0G
0N
0O
0Y
0f
0s
0*"
09"
0:"
0C"
#210000000
1$
1-
1=
1G
1N
1O
1Y
1f
1s
1*"
19"
1:"
1C"
#220000000
0$
0-
0=
0G
0N
0O
0Y
0f
0s
0*"
09"
0:"
0C"
#230000000
1$
1-
1=
1G
1N
1O
1Y
1f
1s
1*"
19"
1:"
1C"
#240000000
0$
0-
0=
0G
0N
0O
0Y
0f
0s
0*"
09"
0:"
0C"
#250000000
1$
1-
1=
1G
1N
1O
1Y
1f
1s
1*"
19"
1:"
1C"
#260000000
1"
0$
b0000000000000000 (
b0000000000000000 )
1+
0-
0=
0G
0N
0O
b0000000000000000 T
1V
0Y
0f
0s
0*"
09"
0:"
0C"
#270000000
1$
1-
1=
1G
1N
1O
1Y
b0000000000000000 d
1f
1s
1*"
19"
1:"
1C"
#280000000
0$
0-
0=
0G
0N
0O
0Y
0f
0s
0*"
09"
0:"
0C"
#290000000
1$
1-
1=
1G
1N
1O
1Y
1f
1s
1*"
19"
1:"
1C"
#300000000
0$
0-
0=
0G
0N
0O
0Y
0f
0s
0*"
09"
0:"
0C"
#310000000
1$
1-
1=
1G
1N
1O
1Y
1f
1s
1*"
19"
1:"
1C"
#320000000
0#
0$
b0000000000001000 (
b0000000000001000 )
0,
0-
0=
0G
0N
0O
b0000000000001000 T
0W
0Y
0f
0s
0*"
09"
0:"
0C"
#330000000
1$
1-
1=
1G
1N
1O
1Y
1f
1s
1*"
19"
1:"
1C"
#340000000
0!
1#
0$
b000000000000X000 (
b000000000000X000 )
0*
1,
0-
15
18
0=
0G
0N
0O
b000000000000X000 T
0U
1W
0Y
1]
1`
1b
1c
0f
1i
1j
0s
0*"
09"
0:"
0C"
#350000000
1$
b000X00X000XXXX00 (
b000X00X000XXXX00 )
1-
b010 0
b0001001000110100 3
17
19
1:
1=
1E
1G
1N
1O
b000X00X000XXXX00 T
1Y
b0001001000110100 [
1_
b000000000000X000 d
1f
b010 l
1n
1o
1q
b010 r
1s
1y
1z
1*"
1."
1/"
10"
11"
19"
1:"
1C"
1F"
1I"
#360000000
0$
0-
0=
0G
0N
0O
0Y
0f
0s
0*"
09"
0:"
0C"
#370000000
1$
1-
1=
1F
1G
1N
1O
1Y
b000X00X000XXXX00 d
1f
1s
1*"
12"
17"
18"
19"
1:"
1C"
1H"
#380000000
0$
0-
0=
0G
0N
0O
0Y
0f
0s
0*"
09"
0:"
0C"
#390000000
1$
1-
1=
0F
1G
1N
1O
1Y
1f
1s
1*"
02"
07"
19"
1:"
1C"
0H"
b0000000000000001 N"
#400000000
0$
0-
0=
0G
0N
0O
0Y
0f
0s
0*"
09"
0:"
0C"
#410000000
1$
1-
1=
1G
1N
1O
1Y
1f
1s
1*"
19"
1:"
1C"
#420000000
1!
0$
b0000000000001000 (
b0000000000001000 )
1*
0-
b0000000000000000 3
05
07
08
09
0:
0=
0E
0G
0N
0O
b0000000000001000 T
1U
0Y
b0000000000000000 [
0]
0_
0`
0b
0c
0f
0i
0j
0n
0o
0s
0y
0z
0*"
0."
0/"
01"
08"
09"
0:"
0C"
0F"
0I"
#430000000
1$
1-
b000 0
1=
1G
1N
1O
1Y
b0000000000001000 d
1f
b000 l
0q
b000 r
1s
1*"
00"
19"
1:"
1C"
#440000000
0$
0-
0=
0G
0N
0O
0Y
0f
0s
0*"
09"
0:"
0C"
#450000000
1$
1-
1=
1G
1N
1O
1Y
1f
1s
1*"
19"
1:"
1C"
#460000000
0$
0-
0=
0G
0N
0O
0Y
0f
0s
0*"
09"
0:"
0C"
#470000000
1$
1-
1=
1G
1N
1O
1Y
1f
1s
1*"
19"
1:"
1C"
#480000000
0$
0-
0=
0G
0N
0O
0Y
0f
0s
0*"
09"
0:"
0C"
#490000000
1$
1-
1=
1G
1N
1O
1Y
1f
1s
1*"
19"
1:"
1C"
#500000000
0$
0-
0=
0G
0N
0O
0Y
0f
0s
0*"
09"
0:"
0C"
#510000000
1$
1-
1=
1G
1N
1O
1Y
1f
1s
1*"
19"
1:"
1C"
#520000000
0$
0-
0=
0G
0N
0O
0Y
0f
0s
0*"
09"
0:"
0C"
#530000000
1$
1-
1=
1G
1N
1O
1Y
1f
1s
1*"
19"
1:"
1C"
#540000000
0$
0-
0=
0G
0N
0O
0Y
0f
0s
0*"
09"
0:"
0C"
#550000000
1$
1-
1=
1G
1N
1O
1Y
1f
1s
1*"
19"
1:"
1C"
#560000000
0#
0$
b0000000000001010 (
b0000000000001010 )
0,
0-
0=
0G
0N
0O
b0000000000001010 T
0W
0Y
0f
0s
0*"
09"
0:"
0C"
#570000000
1$
1-
b0000000000001010 2
1=
1G
1N
1O
1Y
b0000000000001010 Z
b0000000000001010 e
1f
b0000000000001010 h
1s
b01 u
1*"
b0000000000001010 -"
19"
1:"
1C"
b01 E"
#580000000
0!
0"
1#
0$
b1101111011111111 (
b1101111011111111 )
0*
0+
1,
0-
b0000000000001000 4
15
16
18
0=
0G
0N
0O
b1101111011111111 T
0U
0V
1W
0Y
b0000000000001000 \
1]
1^
1`
1a
1c
0f
1i
1j
1k
0s
b0000000000001000 w
0*"
b0000000000001000 ,"
09"
0:"
b0000000000001000 >"
0C"
#590000000
1$
1-
b010 0
b0001001000110100 3
b1101111011111111 4
17
19
1:
1;
1=
1E
1G
1N
1O
1Y
b0001001000110100 [
b1101111011111111 \
1_
b1101111011111111 d
1f
b010 l
1n
1o
1p
1q
b010 r
1s
b1101111011111111 w
1y
1z
1{
1*"
b1101111011111111 ,"
1."
1/"
10"
11"
13"
b0000000000000010 5"
16"
19"
1:"
1;"
b00000001 <"
b1101111011111111 >"
1C"
1F"
1I"
1J"
#600000000
0$
0-
0=
0G
0N
0O
0Y
0f
0s
0*"
09"
0:"
0C"
#610000000
1$
1-
b1101111011111111 3
1=
b1101111011111111 ?
1F
1G
1N
1O
1Y
b1101111011111111 [
1f
1s
1*"
12"
b1101111011111111 4"
17"
18"
19"
1:"
b1101111011111111 ?"
b00000001 A"
1C"
1H"
#620000000
0$
0-
0=
0G
0N
0O
0Y
0f
0s
0*"
09"
0:"
0C"
#630000000
1$
1-
1=
0F
1G
1N
1O
1Y
1f
1s
1*"
02"
07"
19"
1:"
1C"
0H"
b0000000000000010 M"
#640000000
0$
0-
0=
0G
0N
0O
0Y
0f
0s
0*"
09"
0:"
0C"
#650000000
1$
1-
1=
1G
1N
1O
1Y
1f
1s
1*"
19"
1:"
1C"
#660000000
1!
0$
1*
0-
b0000000000000000 3
b0000000000000000 4
05
06
07
08
09
0:
0;
0=
0E
0G
0N
0O
1U
0Y
b0000000000000000 [
b0000000000000000 \
0]
0^
0_
0`
0a
0c
0f
0i
0j
0k
0n
0o
0p
0s
b0000000000000000 w
0y
0z
0{
0*"
b0000000000000000 ,"
0."
0/"
01"
03"
b0000000000000000 5"
06"
08"
09"
0:"
0;"
b00000000 <"
b0000000000000000 >"
0C"
0F"
0I"
0J"
#670000000
1$
1-
b000 0
1=
b0001001000110100 ?
1G
1N
1O
1Y
1f
b000 l
0q
b000 r
1s
1*"
00"
b0001001000110100 4"
19"
1:"
b0001001000110100 ?"
b00000000 A"
1C"
#680000000
0$
0-
0=
0G
0N
0O
0Y
0f
0s
0*"
09"
0:"
0C"
#690000000
1$
1-
1=
1G
1N
1O
1Y
1f
1s
1*"
19"
1:"
1C"
#700000000
0$
0-
0=
0G
0N
0O
0Y
0f
0s
0*"
09"
0:"
0C"
#710000000
1$
1-
1=
1G
1N
1O
1Y
1f
1s
1*"
19"
1:"
1C"
#720000000
0$
0-
0=
0G
0N
0O
0Y
0f
0s
0*"
09"
0:"
0C"
#730000000
1$
1-
1=
1G
1N
1O
1Y
1f
1s
1*"
19"
1:"
1C"
#740000000
0$
0-
0=
0G
0N
0O
0Y
0f
0s
0*"
09"
0:"
0C"
#750000000
1$
1-
1=
1G
1N
1O
1Y
1f
1s
1*"
19"
1:"
1C"
#760000000
1"
0$
b0000000000000000 (
b0000000000000000 )
1+
0-
0=
0G
0N
0O
b0000000000000000 T
1V
0Y
0f
0s
0*"
09"
0:"
0C"
#770000000
1$
1-
1=
1G
1N
1O
1Y
b0000000000000000 d
1f
1s
1*"
19"
1:"
1C"
#780000000
0$
0-
0=
0G
0N
0O
0Y
0f
0s
0*"
09"
0:"
0C"
#790000000
1$
1-
1=
1G
1N
1O
1Y
1f
1s
1*"
19"
1:"
1C"
#800000000
0$
0-
0=
0G
0N
0O
0Y
0f
0s
0*"
09"
0:"
0C"
#810000000
1$
1-
1=
1G
1N
1O
1Y
1f
1s
1*"
19"
1:"
1C"
#820000000
0#
0$
b0000000000001010 (
b0000000000001010 )
0,
0-
0=
0G
0N
0O
b0000000000001010 T
0W
0Y
0f
0s
0*"
09"
0:"
0C"
#830000000
1$
1-
1=
1G
1N
1O
1Y
1f
1s
1*"
19"
1:"
1C"
#840000000
0!
1#
0$
b000000000000X0X0 (
b000000000000X0X0 )
0*
1,
0-
15
18
0=
0G
0N
0O
b000000000000X0X0 T
0U
1W
0Y
1]
1`
1b
1c
0f
1i
1j
0s
0*"
09"
0:"
0C"
#850000000
1$
b000X00X000XXXXX0 (
b000X00X000XXXXX0 )
1-
b010 0
b0001001000110100 3
17
19
1:
1=
1E
1G
1N
1O
b000X00X000XXXXX0 T
1Y
b0001001000110100 [
1_
b000000000000X0X0 d
1f
b010 l
1n
1o
1q
b010 r
1s
1y
1z
1*"
1."
1/"
10"
11"
b0000000000000010 5"
19"
1:"
b00000001 <"
1C"
1F"
1I"
#860000000
0$
0-
0=
0G
0N
0O
0Y
0f
0s
0*"
09"
0:"
0C"
#870000000
1$
bXX0XXXX0XXXX1X1X (
bXX0XXXX0XXXX1X1X )
1-
b1101111011111111 3
1=
b1101111011111111 ?
1F
1G
1N
1O
bXX0XXXX0XXXX1X1X T
1Y
b1101111011111111 [
b000X00X000XXXXX0 d
1f
1s
1*"
12"
b1101111011111111 4"
17"
18"
19"
1:"
b1101111011111111 ?"
b00000001 A"
1C"
1H"
#880000000
0$
0-
0=
0G
0N
0O
0Y
0f
0s
0*"
09"
0:"
0C"
#890000000
1$
1-
1=
0F
1G
1N
1O
1Y
bXX0XXXX0XXXX1X1X d
1f
1s
1*"
02"
07"
19"
1:"
1C"
0H"
b0000000000000010 N"
#900000000
0$
0-
0=
0G
0N
0O
0Y
0f
0s
0*"
09"
0:"
0C"
#910000000
1$
1-
1=
1G
1N
1O
1Y
1f
1s
1*"
19"
1:"
1C"
#920000000
1!
0$
b0000000000001010 (
b0000000000001010 )
1*
0-
b0000000000000000 3
05
07
08
09
0:
0=
0E
0G
0N
0O
b0000000000001010 T
1U
0Y
b0000000000000000 [
0]
0_
0`
0b
0c
0f
0i
0j
0n
0o
0s
0y
0z
0*"
0."
0/"
01"
b0000000000000000 5"
08"
09"
0:"
b00000000 <"
0C"
0F"
0I"
#930000000
1$
1-
b000 0
1=
b0001001000110100 ?
1G
1N
1O
1Y
b0000000000001010 d
1f
b000 l
0q
b000 r
1s
1*"
00"
b0001001000110100 4"
19"
1:"
b0001001000110100 ?"
b00000000 A"
1C"
#940000000
0$
0-
0=
0G
0N
0O
0Y
0f
0s
0*"
09"
0:"
0C"
#950000000
1$
1-
1=
1G
1N
1O
1Y
1f
1s
1*"
19"
1:"
1C"
#960000000
0$
0-
0=
0G
0N
0O
0Y
0f
0s
0*"
09"
0:"
0C"
#970000000
1$
1-
1=
1G
1N
1O
1Y
1f
1s
1*"
19"
1:"
1C"
#980000000
0$
0-
0=
0G
0N
0O
0Y
0f
0s
0*"
09"
0:"
0C"
#990000000
1$
1-
1=
1G
1N
1O
1Y
1f
1s
1*"
19"
1:"
1C"
#1000000000
0$
0-
0=
0G
0N
0O
0Y
0f
0s
0*"
09"
0:"
0C"
#1010000000
1$
1-
1=
1G
1N
1O
1Y
1f
1s
1*"
19"
1:"
1C"
#1020000000
0$
b0000000000000000 (
b0000000000000000 )
0-
0=
0G
0N
0O
b0000000000000000 T
0Y
0f
0s
0*"
09"
0:"
0C"
#1030000000
1$
1-
1=
1G
1N
1O
1Y
b0000000000000000 d
1f
1s
1*"
19"
1:"
1C"
#1040000000
0$
0-
0=
0G
0N
0O
0Y
0f
0s
0*"
09"
0:"
0C"
#1050000000
1$
1-
1=
1G
1N
1O
1Y
1f
1s
1*"
19"
1:"
1C"
#1060000000
0$
0-
0=
0G
0N
0O
0Y
0f
0s
0*"
09"
0:"
0C"
#1070000000
1$
1-
1=
1G
1N
1O
1Y
1f
1s
1*"
19"
1:"
1C"
#1080000000
0#
0$
b1111111111111100 (
b1111111111111100 )
0,
0-
0=
0G
0N
0O
b1111111111111100 T
0W
0Y
0f
0s
0*"
09"
0:"
0C"
#1090000000
1$
1-
b1111111111111100 2
1=
1G
1N
1O
1Y
b1111111111111100 Z
b1111111111111100 e
1f
b1111111111111100 h
1s
b10 u
1*"
b1111111111111100 -"
19"
1:"
1C"
b10 E"
#1100000000
0!
1#
0$
bXXXXXXXXXXXXXX00 (
bXXXXXXXXXXXXXX00 )
0*
1,
0-
15
18
0=
0G
0N
0O
bXXXXXXXXXXXXXX00 T
0U
1W
0Y
1]
1`
1b
1c
0f
1i
1j
0s
0*"
09"
0:"
0C"
#1110000000
1$
1-
b100 0
17
19
1:
1=
1C
1G
1N
1O
1Y
1_
bXXXXXXXXXXXXXX00 d
1f
b100 l
1n
1o
1q
b100 r
1s
1y
1z
1*"
1."
1/"
19"
1:"
1C"
1F"
1G"
1I"
1L"
#1120000000
0$
0-
0=
0G
0N
0O
0Y
0f
0s
0*"
09"
0:"
0C"
#1130000000
1$
bXXXXXXXXXXXXX100 (
bXXXXXXXXXXXXX100 )
1-
b0000000000000100 3
1=
b0000000000000100 @
1G
1N
1O
bXXXXXXXXXXXXX100 T
1Y
b0000000000000100 [
1f
1s
1*"
19"
1:"
1C"
b0000000000000100 K"
#1140000000
0$
0-
0=
0G
0N
0O
0Y
0f
0s
0*"
09"
0:"
0C"
#1150000000
1$
1-
1=
1G
1N
1O
1Y
bXXXXXXXXXXXXX100 d
1f
1s
1*"
19"
1:"
1C"
#1160000000
0$
0-
0=
0G
0N
0O
0Y
0f
0s
0*"
09"
0:"
0C"
#1170000000
1$
1-
1=
1G
1N
1O
1Y
1f
1s
1*"
19"
1:"
1C"
#1180000000
1!
0$
b1111111111111100 (
b1111111111111100 )
1*
0-
b0000000000000000 3
05
07
08
09
0:
0=
0C
0G
0N
0O
b1111111111111100 T
1U
0Y
b0000000000000000 [
0]
0_
0`
0b
0c
0f
0i
0j
0n
0o
0s
0y
0z
0*"
0."
0/"
09"
0:"
0C"
0F"
0I"
0L"
#1190000000
1$
1-
b000 0
1=
1G
1N
1O
1Y
b1111111111111100 d
1f
b000 l
0q
b000 r
1s
1*"
19"
1:"
1C"
0G"
#1200000000
0$
0-
0=
0G
0N
0O
0Y
0f
0s
0*"
09"
0:"
0C"
#1210000000
1$
1-
1=
1G
1N
1O
1Y
1f
1s
1*"
19"
1:"
1C"
#1220000000
0$
0-
0=
0G
0N
0O
0Y
0f
0s
0*"
09"
0:"
0C"
#1230000000
1$
1-
1=
1G
1N
1O
1Y
1f
1s
1*"
19"
1:"
1C"
#1240000000
0$
0-
0=
0G
0N
0O
0Y
0f
0s
0*"
09"
0:"
0C"
#1250000000
1$
1-
1=
1G
1N
1O
1Y
1f
1s
1*"
19"
1:"
1C"
#1260000000
0$
0-
0=
0G
0N
0O
0Y
0f
0s
0*"
09"
0:"
0C"
#1270000000
1$
1-
1=
1G
1N
1O
1Y
1f
1s
1*"
19"
1:"
1C"
#1280000000
0$
b0000000000000000 (
b0000000000000000 )
0-
0=
0G
0N
0O
b0000000000000000 T
0Y
0f
0s
0*"
09"
0:"
0C"
#1290000000
1$
1-
1=
1G
1N
1O
1Y
b0000000000000000 d
1f
1s
1*"
19"
1:"
1C"
#1300000000
0$
0-
0=
0G
0N
0O
0Y
0f
0s
0*"
09"
0:"
0C"
#1310000000
1$
1-
1=
1G
1N
1O
1Y
1f
1s
1*"
19"
1:"
1C"
#1320000000
0$
0-
0=
0G
0N
0O
0Y
0f
0s
0*"
09"
0:"
0C"
#1330000000
1$
1-
1=
1G
1N
1O
1Y
1f
1s
1*"
19"
1:"
1C"
#1340000000
0#
0$
b1111111111111000 (
b1111111111111000 )
0,
0-
0=
0G
0N
0O
b1111111111111000 T
0W
0Y
0f
0s
0*"
09"
0:"
0C"
#1350000000
1$
1-
b1111111111111000 2
1=
1G
1N
1O
1Y
b1111111111111000 Z
b1111111111111000 e
1f
b1111111111111000 h
1s
b00 u
1*"
b1111111111111000 -"
19"
1:"
1C"
b00 E"
#1360000000
0!
1#
0$
bXXXXXXXXXXXXX000 (
bXXXXXXXXXXXXX000 )
0*
1,
0-
15
18
0=
0G
0N
0O
bXXXXXXXXXXXXX000 T
0U
1W
0Y
1]
1`
1b
1c
0f
1i
1j
0s
0*"
09"
0:"
0C"
#1370000000
1$
bXXXXXXXXXXXXXX00 (
bXXXXXXXXXXXXXX00 )
1-
b100 0
b0000000000000100 3
17
19
1:
1=
1C
1G
1N
1O
bXXXXXXXXXXXXXX00 T
1Y
b0000000000000100 [
1_
bXXXXXXXXXXXXX000 d
1f
b100 l
1n
1o
1q
b100 r
1s
1y
1z
1*"
1."
1/"
19"
1:"
1C"
1F"
1G"
1I"
1L"
#1380000000
0$
0-
0=
0G
0N
0O
0Y
0f
0s
0*"
09"
0:"
0C"
#1390000000
1$
bXXXXXXXXXXXXX0X0 (
bXXXXXXXXXXXXX0X0 )
1-
b0000000000000010 3
1=
b0000000000000010 @
1G
1N
1O
bXXXXXXXXXXXXX0X0 T
1Y
b0000000000000010 [
bXXXXXXXXXXXXXX00 d
1f
1s
1*"
19"
1:"
1C"
b0000000000000010 K"
#1400000000
0$
0-
0=
0G
0N
0O
0Y
0f
0s
0*"
09"
0:"
0C"
#1410000000
1$
1-
1=
1G
1N
1O
1Y
bXXXXXXXXXXXXX0X0 d
1f
1s
1*"
19"
1:"
1C"
#1420000000
0$
0-
0=
0G
0N
0O
0Y
0f
0s
0*"
09"
0:"
0C"
#1430000000
1$
1-
1=
1G
1N
1O
1Y
1f
1s
1*"
19"
1:"
1C"
#1440000000
1!
0$
b1111111111111000 (
b1111111111111000 )
1*
0-
b0000000000000000 3
05
07
08
09
0:
0=
0C
0G
0N
0O
b1111111111111000 T
1U
0Y
b0000000000000000 [
0]
0_
0`
0b
0c
0f
0i
0j
0n
0o
0s
0y
0z
0*"
0."
0/"
09"
0:"
0C"
0F"
0I"
0L"
#1450000000
1$
1-
b000 0
1=
1G
1N
1O
1Y
b1111111111111000 d
1f
b000 l
0q
b000 r
1s
1*"
19"
1:"
1C"
0G"
