hardware/obtr_hdl/tb/test.vcd
$date
  Thu Oct 15 21:56:56 2015
$end
$version
  GHDL v0
$end
$timescale
  1 fs
$end
$var reg 1 ! imx_cs_n $end
$var reg 1 " imx_rw $end
$var reg 1 # imx_adv $end
$var reg 1 $ clk $end
$var reg 1 % reset $end
$var reg 1 & button $end
$var reg 1 ' irq $end
$var reg 16 ( imx_da[15:0] $end
$scope module uut $end
$var reg 16 ) imx_da[15:0] $end
$var reg 1 * imx_cs_n $end
$var reg 1 + imx_rw $end
$var reg 1 , imx_adv $end
$var reg 1 - ext_clk $end
$var reg 1 . button $end
$var reg 1 / gls_irq $end
$var reg 2 0 c_sel[1:0] $end
$var reg 1 1 adv $end
$var reg 16 2 wbm_address[15:0] $end
$var reg 16 3 wbm_readdata[15:0] $end
$var reg 16 4 wbm_writedata[15:0] $end
$var reg 1 5 wbm_strobe $end
$var reg 1 6 wbm_write $end
$var reg 1 7 wbm_ack $end
$var reg 1 8 wbm_cycle $end
$var reg 1 9 strobe $end
$var reg 1 : cycle $end
$var reg 1 ; wr $end
$var reg 1 < gls_reset $end
$var reg 1 = gls_clk $end
$var reg 16 > irq_dout[15:0] $end
$var reg 16 ? buffer_dout[15:0] $end
$var reg 1 @ irq_ack $end
$var reg 1 A bt_irq $end
$var reg 16 B irq_port[15:0] $end
$var reg 1 C buffer_ack $end
$scope module debounce_unit $end
$var reg 1 D clk $end
$var reg 1 E reset $end
$var reg 1 F sw $end
$var reg 1 G db_level $end
$var reg 1 H db_tick $end
$comment state_reg is not handled $end
$comment state_next is not handled $end
$var reg 21 I q_reg[20:0] $end
$var reg 21 J q_next[20:0] $end
$upscope $end
$scope module reset_gen $end
$var reg 1 K ext_clk $end
$var reg 1 L gls_clk $end
$var reg 1 M gls_reset $end
$var reg 1 N dly $end
$var reg 1 O rst $end
$var reg 1 P ext_reset $end
$upscope $end
$scope module imx51_wb_16 $end
$var reg 16 Q imx_da[15:0] $end
$var reg 1 R imx_cs_n $end
$var reg 1 S imx_rw $end
$var reg 1 T imx_adv $end
$var reg 1 U gls_reset $end
$var reg 1 V gls_clk $end
$var reg 16 W wbm_address[15:0] $end
$var reg 16 X wbm_readdata[15:0] $end
$var reg 16 Y wbm_writedata[15:0] $end
$var reg 1 Z wbm_strobe $end
$var reg 1 [ wbm_write $end
$var reg 1 \ wbm_ack $end
$var reg 1 ] wbm_cycle $end
$var reg 1 ^ write $end
$var reg 1 _ read $end
$var reg 1 ` strobe $end
$var reg 16 a writedata[15:0] $end
$var reg 16 b address[15:0] $end
$upscope $end
$scope module interface $end
$var reg 1 c clk $end
$var reg 1 d reset $end
$var reg 16 e addr_in[15:0] $end
$var reg 1 f strobe_in $end
$var reg 1 g cycle_in $end
$var reg 1 h wr_in $end
$var reg 2 i c_sel[1:0] $end
$var reg 1 j adv $end
$var reg 1 k strobe_out $end
$var reg 1 l cycle_out $end
$var reg 1 m wr_out $end
$var reg 1 n slave_active $end
$var reg 2 o slave_sel[1:0] $end
$upscope $end
$scope module irq_manager $end
$var reg 1 p gls_clk $end
$var reg 1 q gls_reset $end
$var reg 2 r wbs_s1_address[1:0] $end
$var reg 16 s wbs_s1_readdata[15:0] $end
$var reg 16 t wbs_s1_writedata[15:0] $end
$var reg 1 u wbs_s1_ack $end
$var reg 1 v wbs_s1_strobe $end
$var reg 1 w wbs_s1_cycle $end
$var reg 1 x wbs_s1_write $end
$var reg 1 y irq_cs $end
$var reg 16 z irqport[15:0] $end
$var reg 1 { gls_irq $end
$var reg 16 | irq_r[15:0] $end
$var reg 16 } irq_old[15:0] $end
$var reg 16 !" irq_pend[15:0] $end
$var reg 16 "" irq_ack[15:0] $end
$var reg 16 #" irq_mask[15:0] $end
$var reg 16 $" readdata[15:0] $end
$var reg 1 %" rd_ack $end
$var reg 1 &" wr_ack $end
$upscope $end
$scope module buffer_ent $end
$var reg 1 '" clk $end
$var reg 1 (" reset $end
$var reg 16 )" din[15:0] $end
$var reg 8 *" addr[7:0] $end
$var reg 1 +" strobe $end
$var reg 1 ," cycle $end
$var reg 1 -" c_sel $end
$var reg 1 ." ack $end
$var reg 1 /" wr $end
$var reg 16 0" dout[15:0] $end
$var reg 8 1" mem_addr[7:0] $end
$var reg 1 2" wr_op $end
$scope module mem_ent $end
$var reg 1 3" clka $end
$var reg 1 4" clkb $end
$var reg 1 5" we $end
$var reg 8 6" addr_a[7:0] $end
$var reg 8 7" addr_b[7:0] $end
$var reg 16 8" din_a[15:0] $end
$var reg 16 9" dout_a[15:0] $end
$var reg 16 :" dout_b[15:0] $end
$comment ram is not handled $end
$var reg 8 ;" addr_a_reg[7:0] $end
$var reg 8 <" addr_b_reg[7:0] $end
$upscope $end
$upscope $end
$upscope $end
$enddefinitions $end
#0
1!
1"
1#
0$
1%
0&
1'
b0000000000000000 (
b0000000000000000 )
1*
1+
1,
0-
0.
1/
bUU 0
U1
bUUUUUUUUUUUUUUUU 2
b0000000000000000 3
b0000000000000000 4
05
06
U7
08
09
0:
0;
0<
0=
b0000000000000000 >
b1111111111111111 ?
U@
0A
b0000000000000000 B
0C
0D
0E
0F
0G
0H
bUUUUUUUUUUUUUUUUUUUUU I
bUUUUUUUUUUUUUUUUUUUUU J
0K
0L
0M
0N
0O
0P
b0000000000000000 Q
1R
1S
1T
0U
0V
bUUUUUUUUUUUUUUUU W
b0000000000000000 X
b0000000000000000 Y
0Z
0[
U\
0]
0^
0_
0`
bUUUUUUUUUUUUUUUU a
bUUUUUUUUUUUUUUUU b
0c
0d
bUUUUUUUUUUUUUUUU e
0f
0g
0h
bUU i
Uj
0k
0l
0m
Un
bUU o
0p
0q
bUU r
b0000000000000000 s
b0000000000000000 t
Uu
0v
0w
0x
Uy
b0000000000000000 z
1{
bUUUUUUUUUUUUUUUU |
bUUUUUUUUUUUUUUUU }
bUUUUUUUUUUUUUUUU !"
bUUUUUUUUUUUUUUUU ""
bUUUUUUUUUUUUUUUU #"
bUUUUUUUUUUUUUUUU $"
U%"
U&"
0'"
0("
b0000000000000000 )"
bUUUUUUUU *"
0+"
0,"
U-"
0."
0/"
b1111111111111111 0"
bUUUUUUUU 1"
02"
03"
04"
05"
bUUUUUUUU 6"
b00000000 7"
b0000000000000000 8"
b1111111111111111 9"
b1111111111111111 :"
bUUUUUUUU ;"
bUUUUUUUU <"
#10000000
1$
0'
1-
0/
b00 0
01
b0000000000000000 2
07
1<
1=
0@
1D
1E
b000000000000000000000 I
b000000000000000000000 J
1K
1L
1M
1O
1U
1V
b0000000000000000 W
0\
b0000000000000000 a
b0000000000000000 b
1c
1d
b0000000000000000 e
b00 i
0j
0n
b00 o
1p
1q
b00 r
0u
0y
0{
b0000000000000000 |
b0000000000000000 }
b0000000000000000 !"
b0000000000000000 ""
b0000000000000000 #"
b0000000000000000 $"
0%"
0&"
1'"
1("
b00000000 *"
0-"
b00000000 1"
13"
14"
b00000000 6"
b00000000 <"
#20000000
0$
0%
0-
0=
0D
0K
0L
0V
0c
0p
0'"
03"
04"
#30000000
1$
1-
0<
1=
1D
0E
1K
1L
0M
1N
0O
0U
1V
1c
0d
1p
0q
1'"
0("
13"
14"
b00000000 ;"
#40000000
0$
0-
0=
0D
0K
0L
0V
0c
0p
0'"
03"
04"
#50000000
1$
1-
1=
1D
1K
1L
1V
1c
1p
1'"
13"
14"
#60000000
0#
0$
b0000000000001000 (
b0000000000001000 )
0,
0-
0=
0D
0K
0L
b0000000000001000 Q
0T
0V
0c
0p
0'"
03"
04"
#70000000
1$
1-
b0000000000001000 2
1=
1D
1K
1L
1V
b0000000000001000 W
b0000000000001000 b
1c
b0000000000001000 e
1p
1'"
b00000100 *"
13"
14"
#80000000
0!
0"
1#
0$
b0001001000110100 (
b0001001000110100 )
0*
0+
1,
0-
15
16
18
0=
0D
0K
0L
b0001001000110100 Q
0R
0S
1T
0V
1Z
1[
1]
1^
1`
0c
1f
1g
1h
0p
0'"
03"
04"
#90000000
1$
1-
b10 0
b1111111111111111 3
b0001001000110100 4
17
19
1:
1;
1=
1C
1D
1K
1L
1V
b1111111111111111 X
b0001001000110100 Y
1\
b0001001000110100 a
1c
b10 i
1k
1l
1m
1n
b10 o
1p
b0001001000110100 t
1v
1w
1x
1'"
b0001001000110100 )"
1+"
1,"
1-"
1."
1/"
12"
13"
14"
15"
b0001001000110100 8"
#100000000
0$
0-
0=
0D
0K
0L
0V
0c
0p
0'"
03"
04"
#110000000
1$
1-
b0001001000110100 3
1=
b0001001000110100 ?
1D
1K
1L
1V
b0001001000110100 X
1c
1p
1'"
b0001001000110100 0"
13"
14"
b0001001000110100 9"
b0001001000110100 :"
#120000000
0$
0-
0=
0D
0K
0L
0V
0c
0p
0'"
03"
04"
#130000000
1$
1-
1=
1D
1K
1L
1V
1c
1p
1'"
13"
14"
#140000000
0$
0-
0=
0D
0K
0L
0V
0c
0p
0'"
03"
04"
#150000000
1$
1-
1=
1D
1K
1L
1V
1c
1p
1'"
13"
14"
#160000000
1!
0$
1*
0-
b0000000000000000 3
b0000000000000000 4
05
06
07
08
09
0:
0;
0=
0C
0D
0K
0L
1R
0V
b0000000000000000 X
b0000000000000000 Y
0Z
0[
0\
0]
0^
0`
0c
0f
0g
0h
0k
0l
0m
0p
b0000000000000000 t
0v
0w
0x
0'"
b0000000000000000 )"
0+"
0,"
0."
0/"
02"
03"
04"
05"
b0000000000000000 8"
#170000000
1$
1-
b00 0
1=
1D
1K
1L
1V
1c
b00 i
0n
b00 o
1p
1'"
0-"
13"
14"
#180000000
0$
0-
0=
0D
0K
0L
0V
0c
0p
0'"
03"
04"
#190000000
1$
1-
1=
1D
1K
1L
1V
1c
1p
1'"
13"
14"
#200000000
0$
0-
0=
0D
0K
0L
0V
0c
0p
0'"
03"
04"
#210000000
1$
1-
1=
1D
1K
1L
1V
1c
1p
1'"
13"
14"
#220000000
0$
0-
0=
0D
0K
0L
0V
0c
0p
0'"
03"
04"
#230000000
1$
1-
1=
1D
1K
1L
1V
1c
1p
1'"
13"
14"
#240000000
0$
0-
0=
0D
0K
0L
0V
0c
0p
0'"
03"
04"
#250000000
1$
1-
1=
1D
1K
1L
1V
1c
1p
1'"
13"
14"
#260000000
1"
0$
b0000000000000000 (
b0000000000000000 )
1+
0-
0=
0D
0K
0L
b0000000000000000 Q
1S
0V
0c
0p
0'"
03"
04"
#270000000
1$
1-
1=
1D
1K
1L
1V
b0000000000000000 a
1c
1p
1'"
13"
14"
#280000000
0$
0-
0=
0D
0K
0L
0V
0c
0p
0'"
03"
04"
#290000000
1$
1-
1=
1D
1K
1L
1V
1c
1p
1'"
13"
14"
#300000000
0$
0-
0=
0D
0K
0L
0V
0c
0p
0'"
03"
04"
#310000000
1$
1-
1=
1D
1K
1L
1V
1c
1p
1'"
13"
14"
#320000000
0#
0$
b0000000000001000 (
b0000000000001000 )
0,
0-
0=
0D
0K
0L
b0000000000001000 Q
0T
0V
0c
0p
0'"
03"
04"
#330000000
1$
1-
1=
1D
1K
1L
1V
1c
1p
1'"
13"
14"
#340000000
0!
1#
0$
b000000000000X000 (
b000000000000X000 )
0*
1,
0-
15
18
0=
0D
0K
0L
b000000000000X000 Q
0R
1T
0V
1Z
1]
1_
1`
0c
1f
1g
0p
0'"
03"
04"
#350000000
1$
b000X00X000XXXX00 (
b000X00X000XXXX00 )
1-
b10 0
b0001001000110100 3
17
19
1:
1=
1C
1D
1K
1L
b000X00X000XXXX00 Q
1V
b0001001000110100 X
1\
b000000000000X000 a
1c
b10 i
1k
1l
1n
b10 o
1p
1v
1w
1'"
1+"
1,"
1-"
1."
13"
14"
#360000000
0$
0-
0=
0D
0K
0L
0V
0c
0p
0'"
03"
04"
#370000000
1$
1-
1=
1D
1K
1L
1V
b000X00X000XXXX00 a
1c
1p
1'"
13"
14"
#380000000
0$
0-
0=
0D
0K
0L
0V
0c
0p
0'"
03"
04"
#390000000
1$
1-
1=
1D
1K
1L
1V
1c
1p
1'"
13"
14"
#400000000
0$
0-
0=
0D
0K
0L
0V
0c
0p
0'"
03"
04"
#410000000
1$
1-
1=
1D
1K
1L
1V
1c
1p
1'"
13"
14"
#420000000
1!
0$
b0000000000001000 (
b0000000000001000 )
1*
0-
b0000000000000000 3
05
07
08
09
0:
0=
0C
0D
0K
0L
b0000000000001000 Q
1R
0V
b0000000000000000 X
0Z
0\
0]
0_
0`
0c
0f
0g
0k
0l
0p
0v
0w
0'"
0+"
0,"
0."
03"
04"
#430000000
1$
1-
b00 0
1=
1D
1K
1L
1V
b0000000000001000 a
1c
b00 i
0n
b00 o
1p
1'"
0-"
13"
14"
#440000000
0$
0-
0=
0D
0K
0L
0V
0c
0p
0'"
03"
04"
#450000000
1$
1-
1=
1D
1K
1L
1V
1c
1p
1'"
13"
14"
#460000000
0$
0-
0=
0D
0K
0L
0V
0c
0p
0'"
03"
04"
#470000000
1$
1-
1=
1D
1K
1L
1V
1c
1p
1'"
13"
14"
#480000000
0$
0-
0=
0D
0K
0L
0V
0c
0p
0'"
03"
04"
#490000000
1$
1-
1=
1D
1K
1L
1V
1c
1p
1'"
13"
14"
#500000000
0$
0-
0=
0D
0K
0L
0V
0c
0p
0'"
03"
04"
#510000000
1$
1-
1=
1D
1K
1L
1V
1c
1p
1'"
13"
14"
#520000000
0$
0-
0=
0D
0K
0L
0V
0c
0p
0'"
03"
04"
#530000000
1$
1-
1=
1D
1K
1L
1V
1c
1p
1'"
13"
14"
#540000000
0$
0-
0=
0D
0K
0L
0V
0c
0p
0'"
03"
04"
#550000000
1$
1-
1=
1D
1K
1L
1V
1c
1p
1'"
13"
14"
#560000000
0#
0$
b0000000000001010 (
b0000000000001010 )
0,
0-
0=
0D
0K
0L
b0000000000001010 Q
0T
0V
0c
0p
0'"
03"
04"
#570000000
1$
1-
b0000000000001010 2
1=
1D
1K
1L
1V
b0000000000001010 W
b0000000000001010 b
1c
b0000000000001010 e
1p
b01 r
1'"
b00000101 *"
13"
14"
#580000000
0!
0"
1#
0$
b1101111011111111 (
b1101111011111111 )
0*
0+
1,
0-
b0000000000001000 4
15
16
18
0=
0D
0K
0L
b1101111011111111 Q
0R
0S
1T
0V
b0000000000001000 Y
1Z
1[
1]
1^
1`
0c
1f
1g
1h
0p
b0000000000001000 t
0'"
b0000000000001000 )"
03"
04"
b0000000000001000 8"
#590000000
1$
1-
b10 0
b0001001000110100 3
b1101111011111111 4
17
19
1:
1;
1=
1C
1D
1K
1L
1V
b0001001000110100 X
b1101111011111111 Y
1\
b1101111011111111 a
1c
b10 i
1k
1l
1m
1n
b10 o
1p
b1101111011111111 t
1v
1w
1x
1'"
b1101111011111111 )"
1+"
1,"
1-"
1."
1/"
12"
13"
14"
15"
b1101111011111111 8"
#600000000
0$
0-
0=
0D
0K
0L
0V
0c
0p
0'"
03"
04"
#610000000
1$
1-
b1101111011111111 3
1=
b1101111011111111 ?
1D
1K
1L
1V
b1101111011111111 X
1c
1p
1'"
b1101111011111111 0"
b00000001 1"
13"
14"
b00000001 6"
b1101111011111111 9"
b1101111011111111 :"
#620000000
0$
0-
0=
0D
0K
0L
0V
0c
0p
0'"
03"
04"
#630000000
1$
1-
1=
1D
1K
1L
1V
1c
1p
1'"
13"
14"
b00000001 ;"
#640000000
0$
0-
0=
0D
0K
0L
0V
0c
0p
0'"
03"
04"
#650000000
1$
1-
1=
1D
1K
1L
1V
1c
1p
1'"
13"
14"
#660000000
1!
0$
1*
0-
b0000000000000000 3
b0000000000000000 4
05
06
07
08
09
0:
0;
0=
0C
0D
0K
0L
1R
0V
b0000000000000000 X
b0000000000000000 Y
0Z
0[
0\
0]
0^
0`
0c
0f
0g
0h
0k
0l
0m
0p
b0000000000000000 t
0v
0w
0x
0'"
b0000000000000000 )"
0+"
0,"
0."
0/"
02"
03"
04"
05"
b0000000000000000 8"
#670000000
1$
1-
b00 0
1=
1D
1K
1L
1V
1c
b00 i
0n
b00 o
1p
1'"
0-"
13"
14"
#680000000
0$
0-
0=
0D
0K
0L
0V
0c
0p
0'"
03"
04"
#690000000
1$
1-
1=
1D
1K
1L
1V
1c
1p
1'"
13"
14"
#700000000
0$
0-
0=
0D
0K
0L
0V
0c
0p
0'"
03"
04"
#710000000
1$
1-
1=
1D
1K
1L
1V
1c
1p
1'"
13"
14"
#720000000
0$
0-
0=
0D
0K
0L
0V
0c
0p
0'"
03"
04"
#730000000
1$
1-
1=
1D
1K
1L
1V
1c
1p
1'"
13"
14"
#740000000
0$
0-
0=
0D
0K
0L
0V
0c
0p
0'"
03"
04"
#750000000
1$
1-
1=
1D
1K
1L
1V
1c
1p
1'"
13"
14"
#760000000
1"
0$
b0000000000000000 (
b0000000000000000 )
1+
0-
0=
0D
0K
0L
b0000000000000000 Q
1S
0V
0c
0p
0'"
03"
04"
#770000000
1$
1-
1=
1D
1K
1L
1V
b0000000000000000 a
1c
1p
1'"
13"
14"
#780000000
0$
0-
0=
0D
0K
0L
0V
0c
0p
0'"
03"
04"
#790000000
1$
1-
1=
1D
1K
1L
1V
1c
1p
1'"
13"
14"
#800000000
0$
0-
0=
0D
0K
0L
0V
0c
0p
0'"
03"
04"
#810000000
1$
1-
1=
1D
1K
1L
1V
1c
1p
1'"
13"
14"
#820000000
0#
0$
b0000000000001010 (
b0000000000001010 )
0,
0-
0=
0D
0K
0L
b0000000000001010 Q
0T
0V
0c
0p
0'"
03"
04"
#830000000
1$
1-
1=
1D
1K
1L
1V
1c
1p
1'"
13"
14"
#840000000
0!
1#
0$
b000000000000X0X0 (
b000000000000X0X0 )
0*
1,
0-
15
18
0=
0D
0K
0L
b000000000000X0X0 Q
0R
1T
0V
1Z
1]
1_
1`
0c
1f
1g
0p
0'"
03"
04"
#850000000
1$
bXX0XXXX0XXXX1X1X (
bXX0XXXX0XXXX1X1X )
1-
b10 0
b1101111011111111 3
17
19
1:
1=
1C
1D
1K
1L
bXX0XXXX0XXXX1X1X Q
1V
b1101111011111111 X
1\
b000000000000X0X0 a
1c
b10 i
1k
1l
1n
b10 o
1p
1v
1w
1'"
1+"
1,"
1-"
1."
13"
14"
#860000000
0$
0-
0=
0D
0K
0L
0V
0c
0p
0'"
03"
04"
#870000000
1$
1-
1=
1D
1K
1L
1V
bXX0XXXX0XXXX1X1X a
1c
1p
1'"
13"
14"
#880000000
0$
0-
0=
0D
0K
0L
0V
0c
0p
0'"
03"
04"
#890000000
1$
1-
1=
1D
1K
1L
1V
1c
1p
1'"
13"
14"
#900000000
0$
0-
0=
0D
0K
0L
0V
0c
0p
0'"
03"
04"
#910000000
1$
1-
1=
1D
1K
1L
1V
1c
1p
1'"
13"
14"
#920000000
1!
0$
b0000000000001010 (
b0000000000001010 )
1*
0-
b0000000000000000 3
05
07
08
09
0:
0=
0C
0D
0K
0L
b0000000000001010 Q
1R
0V
b0000000000000000 X
0Z
0\
0]
0_
0`
0c
0f
0g
0k
0l
0p
0v
0w
0'"
0+"
0,"
0."
03"
04"
#930000000
1$
1-
b00 0
1=
1D
1K
1L
1V
b0000000000001010 a
1c
b00 i
0n
b00 o
1p
1'"
0-"
13"
14"
#940000000
0$
0-
0=
0D
0K
0L
0V
0c
0p
0'"
03"
04"
#950000000
1$
1-
1=
1D
1K
1L
1V
1c
1p
1'"
13"
14"
#960000000
0$
0-
0=
0D
0K
0L
0V
0c
0p
0'"
03"
04"
#970000000
1$
1-
1=
1D
1K
1L
1V
1c
1p
1'"
13"
14"
#980000000
0$
0-
0=
0D
0K
0L
0V
0c
0p
0'"
03"
04"
#990000000
1$
1-
1=
1D
1K
1L
1V
1c
1p
1'"
13"
14"
#1000000000
0$
0-
0=
0D
0K
0L
0V
0c
0p
0'"
03"
04"
#1010000000
1$
1-
1=
1D
1K
1L
1V
1c
1p
1'"
13"
14"
#1020000000
0$
0-
0=
0D
0K
0L
0V
0c
0p
0'"
03"
04"
#1030000000
1$
1-
1=
1D
1K
1L
1V
1c
1p
1'"
13"
14"
#1040000000
0$
0-
0=
0D
0K
0L
0V
0c
0p
0'"
03"
04"
#1050000000
1$
1-
1=
1D
1K
1L
1V
1c
1p
1'"
13"
14"
#1060000000
0$
0-
0=
0D
0K
0L
0V
0c
0p
0'"
03"
04"
#1070000000
1$
1-
1=
1D
1K
1L
1V
1c
1p
1'"
13"
14"
#1080000000
0$
1&
0-
1.
0=
0D
1F
b111111111111111111111 J
0K
0L
0V
0c
0p
0'"
03"
04"
#1090000000
1$
1-
1=
1D
b111111111111111111111 I
b111111111111111111110 J
1K
1L
1V
1c
1p
1'"
13"
14"
#1100000000
0$
0-
0=
0D
0K
0L
0V
0c
0p
0'"
03"
04"
#1110000000
1$
1-
1=
1D
b111111111111111111110 I
b111111111111111111101 J
1K
1L
1V
1c
1p
1'"
13"
14"
#1120000000
0$
0&
0-
0.
0=
0D
0F
b111111111111111111110 J
0K
0L
0V
0c
0p
0'"
03"
04"
