hardware/ov7670_interface/tb/clk_gen.vcd
$date
  Fri Oct 23 14:02:02 2015
$end
$version
  GHDL v0
$end
$timescale
  1 fs
$end
$var reg 1 ! clk $end
$var reg 1 " clk_45 $end
$var reg 1 # clk_24 $end
$scope module uut $end
$var reg 1 $ clk_in $end
$var reg 1 % clk_45 $end
$var reg 1 & clk_24 $end
$var reg 1 ' sig45 $end
$var reg 1 ( sig24 $end
$upscope $end
$enddefinitions $end
#0
0!
0"
0#
0$
0%
0&
0'
0(
#5000000
1!
1"
1#
1$
1%
1&
1'
1(
#10000000
0!
0$
#15000000
1!
0"
1$
0%
0'
#20000000
0!
0$
#25000000
1!
1"
0#
1$
1%
0&
1'
0(
#30000000
0!
0$
#35000000
1!
0"
1$
0%
0'
#40000000
0!
0$
#45000000
1!
1"
1#
1$
1%
1&
1'
1(
#50000000
0!
0$
#55000000
1!
0"
1$
0%
0'
#60000000
0!
0$
#65000000
1!
1"
0#
1$
1%
0&
1'
0(
#70000000
0!
0$
#75000000
1!
0"
1$
0%
0'
#80000000
0!
0$
#85000000
1!
1"
1#
1$
1%
1&
1'
1(
#90000000
0!
0$
#95000000
1!
0"
1$
0%
0'
